[0.55332611 0.33185028 0.11012461 0.61344942]
[0.45924247 0.30670887 0.09407033 0.38359518]
[0.42503703 0.25901573 0.06708915 0.34004521]
[0.57201517 0.28463299 0.08101594 0.51604541]
[0.58624815 0.29914777 0.08948939 0.62425706]
[0.58037098 0.28026679 0.07854948 0.59024799]
[0.47313359 0.28962916 0.08388505 0.47446064]
[0.67445803 0.28379696 0.08054072 0.73925287]
[0.5056286  0.30110524 0.09066437 0.66548228]
[0.37120176 0.23468496 0.05507703 0.34535674]
[0.45566844 0.18663382 0.03483218 0.42679222]
[0.59179582 0.19070329 0.03636774 0.65451188]
[0.54387415 0.24113277 0.05814501 0.55419711]
[0.29000754 0.27723459 0.07685902 0.19904626]
[0.35163173 0.30090916 0.09054632 0.20235591]
[0.50062484 0.22279362 0.049637   0.49792929]
[0.52596198 0.34097251 0.11626225 0.73585007]
[0.43404585 0.27812919 0.07735584 0.36009895]
[0.42622656 0.31622265 0.09999676 0.40211554]
[0.54188876 0.26194764 0.06861656 0.6183787 ]
[0.5029126  0.17066477 0.02912646 0.55532709]
[0.33865894 0.25349747 0.06426097 0.33411953]
[0.62476216 0.2543943  0.06471646 0.67067166]
[0.50515673 0.32710009 0.10699447 0.49097257]
[0.64732289 0.27851433 0.07757023 0.72845713]
[0.55602038 0.30749472 0.094553   0.65289343]
[0.49538592 0.18125988 0.03285514 0.51731416]
[0.44714846 0.35625023 0.12691422 0.4466827 ]
[0.45578366 0.33512605 0.11230947 0.31622982]
[0.66687748 0.22932242 0.05258877 0.75925909]
[0.62950757 0.30871403 0.09530435 0.78122709]
[0.45701938 0.23808987 0.05668679 0.41935047]
[0.41088052 0.28806469 0.08298127 0.36462561]
[0.56063363 0.24985578 0.06242791 0.56254805]
[0.55176899 0.29572021 0.08745045 0.68907972]
[0.49496667 0.30545378 0.09330201 0.55973175]
[0.41719035 0.33245998 0.11052964 0.31174038]
[0.49551482 0.30120237 0.09072287 0.50767317]
[0.52891192 0.31087549 0.09664357 0.52620809]
[0.57050315 0.31733954 0.10070438 0.61064247]
[0.49913136 0.28818775 0.08305218 0.53033362]
[0.45778692 0.31835128 0.10134754 0.3758609 ]
[0.39226911 0.25347358 0.06424886 0.40459364]
[0.52884441 0.28185746 0.07944363 0.57792142]
[0.59806905 0.33635096 0.11313197 0.56848232]
[0.51611434 0.25410807 0.06457091 0.44788716]
[0.44398984 0.31191774 0.09729268 0.49353203]
[0.44095748 0.22298289 0.04972137 0.43339838]
[0.40029982 0.29711833 0.0882793  0.41040249]
[0.52087588 0.26633756 0.07093569 0.4367102 ]
[0.6369044  0.25524324 0.06514911 0.6691392 ]
[0.46357993 0.20026265 0.04010513 0.36988536]
[0.45431725 0.3602284  0.1297645  0.36295548]
[0.4894671  0.26331943 0.06933712 0.43257867]
[0.46495831 0.24645774 0.06074142 0.50476272]
[0.45370989 0.30868496 0.09528641 0.43819385]
[0.58791279 0.24248709 0.05879999 0.61073584]
[0.41310058 0.27191511 0.07393782 0.37962725]
[0.41468748 0.31262277 0.097733   0.30274328]
[0.25066341 0.29031518 0.0842829  0.11983021]
[0.42429356 0.29745111 0.08847716 0.31232888]
[0.45220071 0.19510126 0.0380645  0.39025707]
[0.53272279 0.33949991 0.11526019 0.4070299 ]
[0.65207194 0.2639514  0.06967034 0.74568405]
[0.56393089 0.29457369 0.08677366 0.62351142]
[0.60734045 0.22681071 0.0514431  0.64736206]
[0.48366928 0.24845649 0.06173063 0.45140383]
[0.46198691 0.31123648 0.09686815 0.31917329]
[0.42916826 0.27942285 0.07807713 0.33338661]
[0.74618336 0.26199497 0.06864136 0.81279636]
[0.45356319 0.25715522 0.06612881 0.49623274]
[0.61457814 0.239728   0.05746951 0.65328439]
[0.36311823 0.28328161 0.08024847 0.28364115]
[0.49457875 0.28979072 0.08397866 0.53907436]
[0.57406884 0.24803845 0.06152307 0.60107138]
[0.49144213 0.28488263 0.08115811 0.52529333]
[0.55478309 0.29383372 0.08633825 0.60643902]
[0.45128405 0.2768008  0.07661868 0.49728134]
[0.70225867 0.18007435 0.03242677 0.66942097]
[0.42454891 0.26102605 0.0681346  0.37904782]
[0.57747073 0.30210937 0.09127007 0.59140911]
[0.55641693 0.28961381 0.08387616 0.60531182]
[0.47788218 0.26703352 0.0713069  0.49454147]
[0.48823061 0.25613354 0.06560439 0.4567157 ]
[0.26183524 0.24952797 0.06226421 0.17644951]
[0.62735465 0.14564279 0.02121182 0.64598346]
[0.37187267 0.20464889 0.04188117 0.34456144]
[0.46241743 0.34136812 0.11653219 0.52369343]
[0.53439262 0.28157975 0.07928715 0.6109085 ]
[0.49845711 0.33073039 0.10938259 0.38428878]
[0.45617335 0.24814334 0.06157512 0.50840515]
[0.43402334 0.24559365 0.06031624 0.49208175]
[0.43663335 0.2518725  0.06343976 0.33751609]
[0.55275113 0.24145137 0.05829877 0.63433204]
[0.44896775 0.26485283 0.07014702 0.38803737]
[0.39499663 0.16129503 0.02601609 0.39778111]
[0.64156294 0.25494179 0.06499532 0.66319855]
[0.50249464 0.25084351 0.06292247 0.51948458]
[0.48302348 0.31710658 0.10055658 0.5102387 ]
[0.42358011 0.23698053 0.05615977 0.3481323 ]
[0.4299667  0.28804527 0.08297008 0.37833737]
[0.40206734 0.31135845 0.09694409 0.36256429]
[0.55187793 0.30689634 0.09418536 0.55382568]
[0.50030786 0.20990385 0.04405963 0.54291736]
[0.56409219 0.22395463 0.05015567 0.56927835]
[0.50115346 0.2892682  0.08367609 0.52720625]
[0.48306723 0.24361351 0.05934754 0.55229943]
[0.52032856 0.24637714 0.0607017  0.44275662]
[0.63312841 0.28883629 0.0834264  0.72592491]
[0.4349919  0.26137517 0.06831698 0.38751587]
[0.52133797 0.28793673 0.08290756 0.61818804]
[0.49754695 0.2199037  0.04835764 0.51888794]
[0.43287825 0.29655812 0.08794672 0.42984027]
[0.44731876 0.23829293 0.05678352 0.43770014]
[0.40232254 0.33651774 0.11324419 0.40479879]
[0.52208988 0.15962727 0.02548087 0.50690143]
[0.43826924 0.26765508 0.07163924 0.37685842]
[0.52297789 0.27609835 0.0762303  0.44631799]
[0.49929068 0.23817932 0.05672939 0.42967235]
[0.55837019 0.22949946 0.05267    0.57961764]
[0.58544536 0.30948372 0.09578018 0.67057544]
[0.58467042 0.25331555 0.06416877 0.62273976]
[0.51704002 0.26762228 0.07162168 0.4166179 ]
[0.46051462 0.27582719 0.07608064 0.45168637]
[0.47598581 0.24365454 0.05936754 0.43629532]
[0.52570481 0.27277761 0.07440762 0.48702694]
[0.54584693 0.30552191 0.09334364 0.57059812]
[0.56172585 0.20869824 0.04355496 0.58751577]
[0.37992101 0.32977762 0.10875328 0.32960701]
[0.66297489 0.2735143  0.07481007 0.84181696]
[0.40362321 0.28317283 0.08018685 0.43044025]
[0.67282811 0.24777888 0.06139437 0.70454224]
[0.5319879  0.19323693 0.03734051 0.5122584 ]
[0.45677196 0.27431479 0.07524861 0.47702281]
[0.53379508 0.33123146 0.10971428 0.44609302]
[0.39125956 0.2660792  0.07079814 0.38708443]
[0.4131507  0.20701606 0.04285565 0.36964225]
[0.49804888 0.35937022 0.12914696 0.55145824]
[0.55262557 0.31167494 0.09714127 0.52921556]
[0.5048249  0.30331891 0.09200236 0.33932802]
[0.50491426 0.20162349 0.04065203 0.45076264]
[0.60165789 0.17134782 0.02936008 0.67516906]
[0.34074295 0.26857939 0.07213489 0.2903996 ]
[0.46988786 0.32677997 0.10678515 0.41452168]
[0.49370603 0.26790431 0.07177272 0.50524572]
[0.54812257 0.291722   0.08510172 0.67930936]
[0.51496586 0.33230468 0.1104264  0.65421425]
[0.59087896 0.26162093 0.06844551 0.59590367]
[0.35151636 0.19741622 0.03897316 0.36115633]
[0.75868095 0.19316814 0.03731393 0.8108512 ]
[0.24365373 0.24358154 0.05933197 0.18173743]
[0.42021298 0.29066743 0.08448755 0.3902779 ]
[0.56034054 0.32038258 0.102645   0.58822167]
[0.48070489 0.22629292 0.05120849 0.48171418]
[0.34296457 0.1437752  0.02067131 0.35671237]
[0.48384516 0.33142193 0.10984049 0.44340213]
[0.69552748 0.24366961 0.05937488 0.76794809]
[0.63965584 0.28252009 0.0798176  0.76897547]
[0.57503171 0.30539723 0.09326747 0.63635072]
[0.55153239 0.28822167 0.08307173 0.61549923]
[0.57143996 0.35935745 0.12913778 0.58559789]
[0.64579511 0.25432109 0.06467922 0.73052562]
[0.59854095 0.22171938 0.04915949 0.60203353]
[0.50953019 0.24027725 0.05773316 0.48935384]
[0.47516435 0.3095017  0.0957913  0.53713873]
[0.55217905 0.26782727 0.07173145 0.54189824]
[0.60170297 0.31996349 0.10237663 0.64223089]
[0.51017908 0.35367893 0.12508879 0.56519   ]
[0.50786767 0.2451841  0.06011525 0.45099327]
[0.35501883 0.26928896 0.07251654 0.24119154]
[0.61197918 0.29125528 0.08482964 0.7311011 ]
[0.56935598 0.28149427 0.07923902 0.63436699]
[0.55569429 0.3373511  0.11380577 0.6405009 ]
[0.51550968 0.29705058 0.08823904 0.46922542]
[0.58879083 0.29365451 0.08623297 0.60097905]
[0.67302981 0.2821826  0.07962702 0.71192154]
[0.63121964 0.27311697 0.07459288 0.70284077]
[0.47882829 0.30961039 0.09585859 0.45306278]
[0.38100918 0.31640517 0.10011223 0.22631134]
[0.54410714 0.26487758 0.07016013 0.43443085]
[0.40984476 0.19962454 0.03984996 0.37937327]
[0.59823241 0.21236073 0.04509708 0.66276419]
[0.61007566 0.33020972 0.10903846 0.63727553]
[0.65869396 0.23450693 0.0549935  0.63585884]
[0.61840678 0.2966799  0.08801897 0.71312014]
[0.40278207 0.33734947 0.11380467 0.32231283]
[0.6805858  0.25938407 0.0672801  0.71937012]
[0.48197021 0.30007761 0.09004657 0.52294276]
[0.57286698 0.26947949 0.0726192  0.6239637 ]
[0.32007703 0.26115113 0.06819991 0.22674063]
[0.51935224 0.30210076 0.09126487 0.53211056]
[0.32546829 0.26579153 0.07064514 0.27324798]
[0.57172372 0.25308411 0.06405157 0.62760383]
[0.50102534 0.26982482 0.07280543 0.51692955]
[0.31589042 0.27774853 0.07714425 0.2070123 ]
[0.59772924 0.2409816  0.05807213 0.62044685]
[0.58552907 0.29090383 0.08462504 0.61357405]
[0.57731832 0.26895723 0.07233799 0.62471697]
[0.32694481 0.15588263 0.02429939 0.2619403 ]
[0.50099649 0.30071422 0.09042904 0.5051735 ]
[0.50229415 0.32149012 0.1033559  0.37968853]
[0.53214864 0.32673983 0.10675892 0.48418786]
[0.45892454 0.30230603 0.09138894 0.37574277]
[0.58382876 0.24662406 0.06082343 0.49007778]
[0.53108809 0.26592517 0.0707162  0.48488037]
[0.59458048 0.30515586 0.0931201  0.69019907]
[0.50303389 0.24220871 0.05866506 0.46511934]
[0.41141728 0.25020502 0.06260255 0.36761305]
[0.5566039  0.2622278  0.06876342 0.67004938]
[0.55489116 0.26185694 0.06856906 0.575145  ]
[0.4515047  0.25599526 0.06553357 0.39121838]
[0.62529214 0.28333422 0.08027828 0.65710928]
[0.34431082 0.3038517  0.09232585 0.20306941]
[0.38628263 0.20911037 0.04372715 0.39156114]
[0.50654665 0.21192454 0.04491201 0.54543718]
[0.47961629 0.25104077 0.06302147 0.44696288]
[0.52569554 0.31100376 0.09672334 0.60042103]
[0.3911809  0.25672932 0.06590994 0.47137663]
[0.48300127 0.23948425 0.0573527  0.57748155]
[0.42608887 0.20382613 0.04154509 0.43728396]
[0.44356227 0.30276996 0.09166965 0.42093673]
[0.52731661 0.30301669 0.09181911 0.51241175]
[0.51702702 0.26037469 0.06779498 0.45125451]
[0.60728618 0.28750107 0.08265687 0.67488806]
[0.63071203 0.21360539 0.04562726 0.66860443]
[0.537815   0.34147346 0.11660412 0.6256841 ]
[0.49815484 0.28143573 0.07920607 0.438462  ]
[0.57806593 0.26033754 0.06777563 0.66325777]
[0.54225424 0.33139951 0.10982564 0.5828127 ]
[0.35309853 0.30585119 0.09354495 0.20754911]
[0.44991304 0.31175586 0.09719172 0.46176008]
[0.55134677 0.27661592 0.07651637 0.53863602]
[0.53747995 0.25537277 0.06521525 0.53223297]
[0.49966171 0.30137299 0.09082568 0.42447772]
[0.49170973 0.23746496 0.05638961 0.49280121]
[0.62299521 0.27318789 0.07463162 0.72524624]
[0.61952025 0.34282085 0.11752614 0.72559503]
[0.70068247 0.22297302 0.04971697 0.74534176]
[0.55788252 0.26814169 0.07189997 0.64233867]
[0.68807095 0.20948208 0.04388274 0.73226513]
[0.40224207 0.2967834  0.08808039 0.35244329]
[0.2964781  0.22242086 0.04947104 0.30298413]
[0.35551453 0.16331893 0.02667307 0.32540705]
[0.59095516 0.30283366 0.09170823 0.68831317]
[0.45932912 0.27780967 0.07717821 0.47550548]
[0.49519333 0.32488748 0.10555187 0.51786661]
[0.45417917 0.26116078 0.06820495 0.47306225]
[0.39973361 0.31143961 0.09699463 0.26326985]
[0.36646524 0.28944985 0.08378121 0.30628767]
[0.39490138 0.31376879 0.09845085 0.27125213]
[0.47567279 0.24321546 0.05915376 0.47766637]
[0.54142434 0.28677203 0.0822382  0.62904235]
[0.34324664 0.25061705 0.0628089  0.27934346]
[0.44487634 0.18950415 0.03591182 0.4462343 ]
[0.47795677 0.36746154 0.13502798 0.59275766]
[0.49785632 0.34783613 0.12098998 0.6030071 ]
[0.4127869  0.27355219 0.0748308  0.33040705]
[0.69316332 0.26958431 0.0726757  0.81915556]
[0.53994571 0.21342166 0.04554881 0.54668679]
[0.49279906 0.24014535 0.05766979 0.50066015]
[0.37390323 0.21912958 0.04801777 0.40705517]
[0.41420374 0.20887129 0.04362722 0.43402731]
[0.48027024 0.25138574 0.06319479 0.46859807]
[0.34705539 0.22989908 0.05285359 0.29997663]
[0.47096622 0.2765244  0.07646574 0.45582268]
[0.47438705 0.29322199 0.08597914 0.46254341]
[0.55724793 0.24087063 0.05801866 0.55050875]
[0.47776059 0.29201656 0.08527367 0.37140439]
[0.39149151 0.30590201 0.09357604 0.35128147]
[0.5740066  0.24772699 0.06136866 0.57068707]
[0.47232458 0.2526257  0.06381975 0.39629371]
[0.30111485 0.21956356 0.04820816 0.20674585]
[0.64067282 0.31068041 0.09652232 0.79098607]
[0.56790902 0.22984686 0.05282958 0.58259707]
[0.32337556 0.15438403 0.02383443 0.30125688]
[0.52612254 0.2914235  0.08492766 0.60385469]
[0.53930396 0.25855909 0.0668528  0.53719742]
[0.48595482 0.25779017 0.06645577 0.48747938]
[0.34882027 0.24311341 0.05910413 0.32457227]
[0.59177173 0.21341713 0.04554687 0.6176554 ]
[0.61851721 0.28260502 0.07986559 0.64513014]
[0.38143483 0.33646548 0.11320902 0.28037164]
[0.45317745 0.3300544  0.10893591 0.43802758]
[0.49851163 0.25903283 0.06709801 0.44876925]
[0.57069483 0.36921175 0.13631732 0.64313687]
[0.4416647  0.30672046 0.09407744 0.42179102]
[0.66053983 0.19436041 0.03777597 0.69713202]
[0.42540288 0.29368896 0.08625321 0.42516412]
[0.56656718 0.33742736 0.11385722 0.70204029]
[0.55136672 0.33009753 0.10896438 0.59903419]
[0.60258433 0.29489822 0.08696496 0.64089612]
[0.5773725  0.2763524  0.07637065 0.61603668]
[0.46786654 0.18141651 0.03291195 0.47346868]
[0.5552037  0.30430394 0.09260089 0.58128031]
[0.53694856 0.30565972 0.09342787 0.51077159]
[0.41455018 0.25662319 0.06585546 0.32430683]
[0.4566772  0.34240296 0.11723979 0.36439143]
[0.57655232 0.32769031 0.10738094 0.5532926 ]
[0.57369542 0.28385531 0.08057384 0.67798821]
[0.29679571 0.21733958 0.04723649 0.22887225]
[0.71503133 0.10996263 0.01209178 0.75183588]
[0.73890941 0.2309933  0.0533579  0.84358786]
[0.57872043 0.27558369 0.07594637 0.5780296 ]
[0.65449405 0.26120576 0.06822845 0.72772737]
[0.45906175 0.23645745 0.05591212 0.44819695]
[0.5163004  0.30924956 0.09563529 0.53292853]
[0.44052447 0.24492358 0.05998756 0.45540533]
[0.41159188 0.34935997 0.12205239 0.25106525]
[0.41631908 0.25457544 0.06480865 0.35810204]
[0.42747255 0.34488946 0.11894874 0.28870984]
[0.37111722 0.25437813 0.06470823 0.43713959]
[0.62265066 0.21164477 0.04479351 0.62486595]
[0.44308454 0.25436056 0.0646993  0.46809549]
[0.50592247 0.31945036 0.10204853 0.44899053]
[0.51626528 0.32191556 0.10362963 0.62981092]
[0.48825016 0.26307894 0.06921053 0.56415981]
[0.64878782 0.30681156 0.09413333 0.76209988]
[0.35992082 0.27055847 0.07320189 0.29955498]
[0.485731   0.33649612 0.11322964 0.54548209]
[0.55384653 0.26361503 0.06949288 0.56536164]
[0.60898207 0.22910257 0.05248799 0.58915749]
[0.36424828 0.26825708 0.07196186 0.23702791]
[0.62683325 0.19730586 0.0389296  0.59449579]
[0.35425717 0.22976257 0.05279084 0.2833405 ]
[0.57300514 0.15438793 0.02383563 0.58658491]
[0.41060887 0.25990623 0.06755125 0.31852658]
[0.57238542 0.27608534 0.07622312 0.58895237]
[0.55942057 0.26351459 0.06943994 0.55395383]
[0.58097076 0.26169289 0.06848317 0.60331582]
[0.37326845 0.2502094  0.06260475 0.28987615]
[0.47562645 0.201796   0.04072163 0.44286087]
[0.50777217 0.26898873 0.07235494 0.5613323 ]
[0.448215   0.30340348 0.09205367 0.32290256]
[0.36402141 0.20201841 0.04081144 0.28681586]
[0.44501408 0.17496172 0.0306116  0.48334561]
[0.33676222 0.2397582  0.057484   0.3266447 ]
[0.44653501 0.2558089  0.06543819 0.34307069]
[0.44721518 0.2916379  0.08505267 0.44635962]
[0.48557095 0.3015627  0.09094006 0.5169859 ]
[0.39065105 0.26776532 0.07169826 0.36360644]
[0.34885158 0.16546579 0.02737893 0.39627664]
[0.61690214 0.23870658 0.05698083 0.61944252]
[0.44440036 0.30335652 0.09202518 0.38430239]
[0.63062507 0.26433212 0.06987147 0.61781124]
[0.51677126 0.26330218 0.06932804 0.56081537]
[0.56445692 0.29524907 0.08717201 0.57073944]
[0.58284462 0.30894235 0.09544538 0.62862507]
[0.45842982 0.24021602 0.05770373 0.45760307]
[0.42041105 0.35633561 0.12697507 0.21462373]
[0.40527497 0.21732477 0.04723006 0.42298333]
[0.57627513 0.25223786 0.06362394 0.58191504]
[0.37622971 0.20711156 0.0428952  0.40774679]
[0.52696777 0.2796431  0.07820027 0.56455107]
[0.45196557 0.29018005 0.08420446 0.39610106]
[0.47175145 0.28780856 0.08283377 0.49895725]
[0.39138597 0.18847985 0.03552466 0.40193053]
[0.68099953 0.24413037 0.05959964 0.73083114]
[0.4165084  0.26786806 0.0717533  0.40611775]
[0.43517543 0.31598457 0.09984625 0.29800904]
[0.64145274 0.22437567 0.05034444 0.59533344]
[0.42882432 0.30816071 0.09496302 0.33683572]
[0.53557755 0.25535844 0.06520793 0.48348481]
[0.43149129 0.2864282  0.08204111 0.38443289]
[0.36530475 0.30752582 0.09457213 0.31174901]
[0.48889411 0.16690227 0.02785637 0.46743504]
[0.60494717 0.28410882 0.08071782 0.68974992]
[0.35849752 0.177898   0.0316477  0.40093102]
[0.37346279 0.23478158 0.05512239 0.30997821]
[0.50195557 0.29859155 0.08915691 0.62315278]
[0.55401133 0.33181558 0.11010158 0.55276128]
[0.46190157 0.22833075 0.05213493 0.46745689]
[0.40783149 0.30432118 0.09261138 0.40968296]
[0.61379595 0.19033242 0.03622643 0.61714683]
[0.5333238  0.2823342  0.0797126  0.59734658]
[0.50115521 0.2979346  0.08876503 0.47408171]
[0.50137368 0.24279349 0.05894868 0.51364835]
[0.45597427 0.31875995 0.10160791 0.41299084]
[0.52249449 0.32085865 0.10295027 0.47852069]
[0.62527955 0.29553249 0.08733945 0.76061591]
[0.58441769 0.197645   0.03906355 0.63884214]
[0.54810111 0.25702397 0.06606132 0.58746559]
[0.51680687 0.2865486  0.0821101  0.46742043]
[0.50582714 0.26480589 0.07012216 0.65469169]
[0.41488924 0.25950192 0.06734125 0.340741  ]
[0.51051753 0.30272699 0.09164363 0.50670483]
[0.39455522 0.251302   0.06315269 0.34208768]
[0.58426549 0.2652508  0.07035799 0.57748228]
[0.49555392 0.25936854 0.06727204 0.47996949]
[0.58870929 0.27789214 0.07722404 0.58586656]
[0.50046089 0.30521763 0.0931578  0.56932139]
[0.65169859 0.23312891 0.05434909 0.72523212]
[0.53184426 0.36440388 0.13279019 0.54482065]
[0.46297519 0.28440462 0.08088599 0.44205918]
[0.53914664 0.28831048 0.08312293 0.49310152]
[0.67972241 0.23157981 0.05362921 0.66934689]
[0.67693605 0.31441012 0.09885372 0.78531817]
[0.65322066 0.31067545 0.09651923 0.77273678]
[0.42846422 0.28370269 0.08048722 0.31849832]
[0.45261745 0.30042668 0.09025619 0.34872673]
[0.50534751 0.30174972 0.09105289 0.44215885]
[0.5184155  0.26054738 0.06788494 0.50765708]
[0.46001446 0.28962801 0.08388438 0.4052361 ]
[0.56027582 0.24803365 0.06152069 0.58898978]
[0.5189334  0.26567239 0.07058182 0.57739427]
[0.37916853 0.21207784 0.04497701 0.33937637]
[0.58183122 0.31062535 0.09648811 0.6878794 ]
[0.41431326 0.35892745 0.12882891 0.2762313 ]
[0.57851324 0.31760795 0.10087481 0.69328252]
[0.5343254  0.28997805 0.08408727 0.67011115]
[0.41919645 0.19248931 0.03705213 0.38043872]
[0.6795272  0.26988875 0.07283994 0.85704336]
[0.41899669 0.29928278 0.08957018 0.38247762]
[0.48028969 0.15242131 0.02323226 0.48380919]
[0.4299036  0.27199571 0.07398167 0.40853191]
[0.52170635 0.25764298 0.06637991 0.58737258]
[0.44593789 0.27320999 0.0746437  0.42162345]
[0.51042146 0.26881722 0.0722627  0.47979831]
[0.49110493 0.34127349 0.1164676  0.38518252]
[0.5302082  0.32859908 0.10797735 0.5874026 ]
[0.58089916 0.32739017 0.10718433 0.72146447]
[0.55686142 0.34051503 0.11595048 0.67258916]
[0.54146615 0.29195341 0.08523679 0.48490445]
[0.48712986 0.19825673 0.03930573 0.55198846]
[0.48558945 0.31359218 0.09834006 0.4319603 ]
[0.45084707 0.23378831 0.05465698 0.43394606]
[0.41171991 0.28420054 0.08076995 0.34811297]
[0.45418096 0.2884407  0.08319804 0.52458386]
[0.39280569 0.22445728 0.05038107 0.33880666]
[0.64455355 0.27105196 0.07346917 0.73735481]
[0.39240231 0.27141697 0.07366717 0.31570234]
[0.49445088 0.32754434 0.10728529 0.51619169]
[0.57423645 0.25264535 0.06382967 0.5881553 ]
[0.56441944 0.33097767 0.10954622 0.67855819]
[0.38802822 0.30735514 0.09446718 0.48626763]
[0.463756   0.28652136 0.08209449 0.49691821]
[0.38232223 0.21346889 0.04556897 0.34228388]
[0.54479046 0.21664947 0.04693699 0.56631717]
[0.40272728 0.27519177 0.07573051 0.37729644]
[0.62033737 0.16120434 0.02598684 0.68829483]
[0.55305772 0.19820481 0.03928515 0.52653647]
[0.46580057 0.32283359 0.10422153 0.37135273]
[0.49335572 0.20154274 0.04061948 0.46735724]
[0.64664633 0.25304428 0.06403141 0.67914327]
[0.74774521 0.20390571 0.04157754 0.80703132]
[0.3227577  0.25194841 0.063478   0.24907287]
[0.42120361 0.28852024 0.08324393 0.38047643]
[0.57010651 0.25578806 0.06542753 0.56341932]
[0.53010694 0.29306893 0.0858894  0.57797455]
[0.37462085 0.32323418 0.10448034 0.17538338]
[0.53809546 0.18730699 0.03508391 0.5992659 ]
[0.49101543 0.22146969 0.04904882 0.50612304]
[0.54642772 0.20452148 0.04182903 0.54432791]
[0.47837423 0.22188616 0.04923347 0.53710562]
[0.65586759 0.16273151 0.02648154 0.72554819]
[0.40851129 0.2847071  0.08105813 0.41604787]
[0.66369341 0.3081691  0.09496819 0.76424302]
[0.45979747 0.28345087 0.08034439 0.43056834]
[0.53527593 0.30070498 0.09042349 0.59200728]
[0.41218883 0.2717098  0.07382621 0.35161273]
[0.47820714 0.33710426 0.11363928 0.61995366]
[0.54562668 0.30427348 0.09258235 0.58805911]
[0.44628559 0.30531248 0.09321571 0.30941669]
[0.37094782 0.25218722 0.0635984  0.39357299]
[0.59769445 0.33494121 0.11218562 0.70917283]
[0.47430969 0.26886279 0.0722872  0.34606086]
[0.4862275  0.28709257 0.08242214 0.39372729]
[0.45795548 0.24094369 0.05805386 0.38426591]
[0.63417323 0.279771   0.07827181 0.68984433]
[0.60055648 0.31895648 0.10173324 0.67577703]
[0.6249256  0.21146541 0.04471762 0.68029387]
[0.29025167 0.23126198 0.0534821  0.21090593]
[0.32461369 0.28101109 0.07896723 0.29756988]
[0.54321956 0.31956505 0.10212182 0.55771487]
[0.33141269 0.21596971 0.04664291 0.3117295 ]
[0.46080339 0.21850195 0.0477431  0.43015033]
[0.43145872 0.28430309 0.08082825 0.40799743]
[0.39717359 0.18578512 0.03451611 0.43094561]
[0.38254705 0.23660813 0.05598341 0.40109904]
[0.52455831 0.26745685 0.07153317 0.46058282]
[0.57676843 0.2201334  0.04845872 0.6536794 ]
[0.42589593 0.24788248 0.06144572 0.4281829 ]
[0.40214672 0.32543746 0.10590954 0.32656125]
[0.58556056 0.24005709 0.05762741 0.55438595]
[0.44729626 0.30287286 0.09173197 0.44931873]
[0.6190039  0.28993148 0.08406026 0.70718017]
[0.66858285 0.19841809 0.03936974 0.71658458]
[0.40509107 0.33219366 0.11035263 0.27642112]
[0.53387493 0.30038954 0.09023388 0.50594764]
[0.49541184 0.31169347 0.09715282 0.50043924]
[0.34938012 0.21474028 0.04611339 0.30391275]
[0.41861493 0.25072208 0.06286156 0.4683791 ]
[0.5580018  0.2606666  0.06794708 0.59692397]
[0.45787446 0.18294981 0.03347063 0.44050845]
[0.4194553  0.31180487 0.09722228 0.38740047]
[0.64403279 0.25565051 0.06535718 0.69312966]
[0.44179818 0.27203014 0.0740004  0.42043801]
[0.67197649 0.22611284 0.05112702 0.66914342]
[0.64801717 0.28161264 0.07930568 0.7032393 ]
[0.65413843 0.25121853 0.06311075 0.66878267]
[0.57581948 0.20532545 0.04215854 0.58896634]
[0.52353733 0.32872458 0.10805985 0.55815411]
[0.45726639 0.21519283 0.04630796 0.52420336]
[0.49807613 0.3122676  0.09751105 0.45578797]
[0.33225759 0.27194924 0.07395639 0.29154336]
[0.42120723 0.2476604  0.06133568 0.33577376]
[0.42822909 0.29294818 0.08581864 0.2869751 ]
[0.55950497 0.2321376  0.05388786 0.47545708]
[0.49241623 0.3161829  0.09997163 0.35381333]
[0.60505085 0.23723757 0.05628166 0.66172066]
[0.58438599 0.3451927  0.119158   0.69707527]
[0.45624732 0.2023334  0.04093881 0.4693517 ]
[0.68773328 0.26775427 0.07169235 0.73796313]
[0.63071341 0.22948446 0.05266312 0.62916862]
[0.51308621 0.31064394 0.09649966 0.50020653]
[0.59965831 0.24598583 0.06050903 0.66084352]
[0.59560306 0.21910324 0.04800623 0.61307341]
[0.37963625 0.22922758 0.05254528 0.30800635]
[0.45543466 0.22347795 0.0499424  0.37757505]
[0.46143379 0.31565481 0.09963796 0.299311  ]
[0.43363809 0.33393777 0.11151443 0.37851903]
[0.54215721 0.34550694 0.11937505 0.64410853]
[0.2145374  0.15549796 0.02417962 0.13834223]
[0.36115562 0.19775884 0.03910856 0.31524284]
[0.58356111 0.31987946 0.10232287 0.51465641]
[0.60814273 0.25708735 0.06609391 0.75327116]
[0.61021909 0.25797198 0.06654954 0.61766656]
[0.53905467 0.28151608 0.07925131 0.67517428]
[0.54023922 0.31245562 0.09762852 0.59851185]
[0.44982451 0.25643873 0.06576082 0.34834804]
[0.40408402 0.31751768 0.10081748 0.23634247]
[0.41591498 0.31102289 0.09673524 0.37294797]
[0.3999092  0.20590491 0.04239683 0.30381614]
[0.44412191 0.17639064 0.03111366 0.49817761]
[0.53030205 0.26862126 0.07215738 0.45801751]
[0.40061915 0.20032294 0.04012928 0.35052876]
[0.45679727 0.29360437 0.08620353 0.39737569]
[0.50559468 0.29243489 0.08551816 0.54977213]
[0.61595439 0.28636534 0.08200511 0.7157255 ]
[0.47038715 0.317352   0.10071229 0.33958131]
[0.50635404 0.30162636 0.09097846 0.57080807]
[0.51944382 0.28705862 0.08240265 0.43418927]
[0.43767519 0.26082762 0.06803105 0.38820819]
[0.54748676 0.32545898 0.10592355 0.58063306]
[0.56277277 0.37556105 0.1410461  0.6600887 ]
[0.47305044 0.30277629 0.09167348 0.3418885 ]
[0.38612129 0.23608593 0.05573657 0.33267329]
[0.6706963  0.27624615 0.07631193 0.7555945 ]
[0.51069892 0.35115942 0.12331294 0.67246045]
[0.45156349 0.361247   0.13049939 0.41690267]
[0.40494419 0.2386096  0.05693454 0.45329188]
[0.3783419  0.24493383 0.05999258 0.49756691]
[0.56764158 0.24889397 0.06194821 0.53257996]
[0.70417634 0.21313484 0.04542646 0.67700511]
[0.39990791 0.29091287 0.0846303  0.3838138 ]
[0.46609911 0.2422736  0.0586965  0.43167112]
[0.53324725 0.32023382 0.1025497  0.46031059]
[0.57696577 0.32616962 0.10638662 0.62295969]
[0.423145   0.34040686 0.11587683 0.28322294]
[0.48705151 0.2231986  0.04981761 0.46444819]
[0.56249576 0.29112801 0.08475552 0.63596041]
[0.55940596 0.24219237 0.05865714 0.52166632]
[0.57210445 0.28070829 0.07879715 0.65136649]
[0.59924829 0.27822801 0.07741083 0.70539083]
[0.482249   0.2792868  0.07800111 0.53168182]
[0.41756349 0.30425103 0.09256869 0.35408185]
[0.48274505 0.34385149 0.11823385 0.53770331]
[0.57513924 0.35705113 0.12748551 0.52804619]
[0.38573615 0.26884936 0.07227998 0.28828939]
[0.32078977 0.20346496 0.04139799 0.28827916]
[0.52409513 0.22512756 0.05068242 0.55907454]
[0.4945593  0.25174923 0.06337768 0.41612903]
[0.3178394  0.23792494 0.05660828 0.27358543]
[0.56623245 0.29526152 0.08717937 0.51302697]
[0.60918367 0.29494556 0.08699288 0.60193554]
[0.47217041 0.28080754 0.07885287 0.53511479]
[0.41905525 0.24841683 0.06171092 0.37392692]
[0.41211444 0.27757338 0.07704698 0.33932637]
[0.41711647 0.28873643 0.08336873 0.39387199]
[0.57501735 0.30476454 0.09288143 0.58161378]
[0.48038809 0.26092673 0.06808276 0.44042806]
[0.40745285 0.2758706  0.07610459 0.40964789]
[0.50598902 0.29478927 0.08690071 0.52574111]
[0.39676273 0.32833159 0.10780163 0.28554523]
[0.47299375 0.24750134 0.06125691 0.47884483]
[0.35542667 0.19196531 0.03685068 0.3606327 ]
[0.57190242 0.32986296 0.10880957 0.60949014]
[0.46387772 0.31782882 0.10101516 0.39742862]
[0.54299431 0.28174666 0.07938118 0.52013736]
[0.45707355 0.39778392 0.15823204 0.37574313]
[0.5690697  0.28525888 0.08137263 0.55351361]
[0.37677325 0.31992277 0.10235058 0.22261418]
[0.59565582 0.27546774 0.07588248 0.62446749]
[0.5677927  0.27326471 0.0746736  0.59163866]
[0.65251449 0.27580808 0.0760701  0.65972058]
[0.44354331 0.20554095 0.04224708 0.46009994]
[0.61816568 0.32869655 0.10804142 0.66169229]
[0.4466349  0.27574769 0.07603679 0.35541496]
[0.53937752 0.23301841 0.05429758 0.58102958]
[0.42163122 0.24951361 0.06225704 0.35721151]
[0.66105096 0.19011937 0.03614538 0.70387282]
[0.57178958 0.31681579 0.10037225 0.53813394]
[0.48542328 0.29096404 0.08466007 0.55030586]
[0.50332196 0.31478765 0.09909126 0.51381935]
[0.37018167 0.33908164 0.11497636 0.19259132]
[0.41290949 0.18922304 0.03580536 0.4576901 ]
[0.4951034  0.19042439 0.03626145 0.53317711]
[0.52804512 0.31622147 0.09999602 0.64984325]
[0.43026545 0.32627996 0.10645861 0.32526142]
[0.59140057 0.23275781 0.0541762  0.5629957 ]
[0.63592073 0.34613153 0.11980704 0.77844406]
[0.5272681  0.27816859 0.07737776 0.54599996]
[0.60490322 0.31201772 0.09735505 0.77288225]
[0.35827507 0.28576286 0.08166041 0.24989245]
[0.53558417 0.25376123 0.06439476 0.52297864]
[0.53579872 0.24185834 0.05849546 0.53861742]
[0.47893926 0.35464689 0.12577441 0.45142489]
[0.48699194 0.26574183 0.07061872 0.49425169]
[0.52116761 0.30596602 0.09361521 0.56437893]
[0.74217416 0.24832107 0.06166335 0.84265714]
[0.39043179 0.28372699 0.080501   0.3536723 ]
[0.45656285 0.24806106 0.06153429 0.38071839]
[0.51001428 0.29897327 0.08938502 0.583087  ]
[0.6100584  0.28055316 0.07871008 0.69307862]
[0.51607637 0.33900093 0.11492163 0.57517253]
[0.51284373 0.23920081 0.05721703 0.54500102]
[0.51366834 0.25297571 0.06399671 0.50023283]
[0.48035507 0.35859882 0.12859311 0.41052554]
[0.52797424 0.28738721 0.08259141 0.49191267]
[0.49749822 0.29043135 0.08435037 0.48799733]
[0.54700439 0.22749769 0.0517552  0.62069874]
[0.50045185 0.2811644  0.07905342 0.49456625]
[0.52451362 0.29934888 0.08960975 0.47721142]
[0.5989523  0.29279495 0.08572888 0.67429518]
[0.48325674 0.31210478 0.09740939 0.35297838]
[0.38619498 0.24002029 0.05760974 0.46099993]
[0.50937625 0.31941153 0.10202373 0.44186174]
[0.60667296 0.17823542 0.03176786 0.61638517]
[0.57943597 0.22805328 0.0520083  0.55187411]
[0.56569074 0.28431871 0.08083713 0.58716775]
[0.50477865 0.31004252 0.09612637 0.4295995 ]
[0.49057142 0.19489657 0.03798467 0.5752816 ]
[0.67308403 0.27781063 0.07717875 0.69819516]
[0.57028701 0.30355708 0.0921469  0.55317319]
[0.35503034 0.26189121 0.068587   0.33112627]
[0.46199292 0.30097872 0.09058819 0.39470511]
[0.42732675 0.2554623  0.06526099 0.39044405]
[0.49448709 0.25101325 0.06300765 0.55397361]
[0.56180222 0.29238722 0.08549028 0.57628675]
[0.63005447 0.26615405 0.07083798 0.63674405]
[0.44811619 0.34580932 0.11958409 0.39907953]
[0.47204669 0.23198884 0.05381882 0.44582289]
[0.49260257 0.26313149 0.06923818 0.43966401]
[0.41850336 0.24223114 0.05867593 0.38349365]
[0.27549654 0.23039037 0.05307972 0.20374477]
[0.3851151  0.29763195 0.08858478 0.4173882 ]
[0.47250433 0.23985526 0.05753055 0.46235598]
[0.55795897 0.25968287 0.06743519 0.61626027]
[0.52376024 0.26849891 0.07209167 0.48250203]
[0.59450922 0.18978414 0.03601802 0.61433988]
[0.42218774 0.28132083 0.07914141 0.39023718]
[0.39833015 0.32223899 0.10383797 0.34669774]
[0.40310144 0.28012093 0.07846773 0.37888592]
[0.45252506 0.32225958 0.10385124 0.3255493 ]
[0.51058194 0.29264982 0.08564392 0.50290096]
[0.41910336 0.27856342 0.07759758 0.33366435]
[0.65405059 0.23742375 0.05637004 0.68244119]
[0.44147443 0.23081218 0.05327426 0.39161135]
[0.60604734 0.28449231 0.08093587 0.7053011 ]
[0.56607432 0.32267074 0.10411641 0.65133548]
[0.31117785 0.2770096  0.07673432 0.18699569]
[0.45261958 0.26410523 0.06975157 0.48196824]
[0.51810904 0.33358598 0.11127961 0.4049265 ]
[0.49313503 0.27428047 0.07522978 0.47992058]
[0.53197766 0.27618844 0.07628006 0.51256142]
[0.51848395 0.32735971 0.10716438 0.45179789]
[0.51427305 0.23345542 0.05450143 0.65492526]
[0.33453172 0.27178462 0.07386688 0.27384497]
[0.50166015 0.33073132 0.1093832  0.56510428]
[0.51758044 0.14907695 0.02222394 0.46453669]
[0.43628431 0.2873504  0.08257025 0.47501957]
[0.338539   0.23493163 0.05519287 0.39598285]
[0.5081187  0.2605611  0.06789209 0.49189273]
[0.48665926 0.2984151  0.08905157 0.52180201]
[0.51453159 0.28804853 0.08297195 0.52367867]
[0.41178707 0.28189261 0.07946345 0.40324603]
[0.5033248  0.29800203 0.08880521 0.50267754]
[0.57362397 0.32116448 0.10314662 0.61044513]
[0.59019312 0.36308605 0.13183148 0.67617941]
[0.3788227  0.27042721 0.07313087 0.31245248]
[0.43811507 0.27676458 0.07659863 0.47709703]
[0.42077371 0.24686744 0.06094353 0.4563402 ]
[0.53853956 0.29387776 0.08636414 0.49375052]
[0.5235413  0.26951574 0.07263873 0.4811745 ]
[0.28691228 0.25405387 0.06454337 0.18060802]
[0.49888144 0.29389029 0.0863715  0.5739286 ]
[0.48792812 0.24716449 0.06109029 0.48604979]
[0.56742982 0.31058484 0.09646294 0.68664911]
[0.47267197 0.24319612 0.05914435 0.44970225]
[0.70281417 0.20983652 0.04403137 0.75913322]
[0.61772499 0.28121693 0.07908296 0.58285178]
[0.63389729 0.32827227 0.10776268 0.79595552]
[0.43902702 0.22383283 0.05010113 0.3765645 ]
[0.48861627 0.25932245 0.06724813 0.5011984 ]
[0.49784389 0.21655193 0.04689474 0.45531477]
[0.52430719 0.30682916 0.09414413 0.48084463]
[0.50243235 0.30636397 0.09385888 0.50257102]
[0.37877436 0.30216658 0.09130464 0.32639098]
[0.52485318 0.26912991 0.07243091 0.4411125 ]
[0.39936007 0.27403009 0.07509249 0.46155594]
[0.53203197 0.2611177  0.06818245 0.56595508]
[0.51908982 0.29782446 0.08869941 0.57677417]
[0.3445697  0.23488252 0.0551698  0.19956852]
[0.5295696  0.2640713  0.06973365 0.56731714]
[0.54114005 0.30886452 0.09539729 0.59347616]
[0.52606627 0.31330754 0.09816162 0.52275355]
[0.5390593  0.32674724 0.10676376 0.52383026]
[0.54890437 0.20227796 0.04091637 0.58597364]
[0.34916747 0.17712879 0.03137461 0.28790718]
[0.43961819 0.22937472 0.05261276 0.36322471]
[0.38800082 0.21749715 0.04730501 0.36852307]
[0.4146621  0.30872522 0.09531126 0.32455636]
[0.46529179 0.29080249 0.08456609 0.42729692]
[0.58887667 0.34554872 0.11940392 0.69026476]
[0.36048102 0.31771597 0.10094344 0.26081843]
[0.59629788 0.32400877 0.10498168 0.6816953 ]
[0.47217755 0.29138631 0.08490598 0.47699407]
[0.30159202 0.241964   0.05854658 0.22367793]
[0.38037742 0.29955838 0.08973522 0.26262464]
[0.49147573 0.27783192 0.07719057 0.48946716]
[0.4976468  0.2838175  0.08055238 0.42735578]
[0.3141606  0.24803686 0.06152228 0.23226134]
[0.50259256 0.2797984  0.07828714 0.53110575]
[0.51402793 0.21975541 0.04829244 0.52449245]
[0.49870535 0.26520793 0.07033525 0.55209728]
[0.34261153 0.25298896 0.06400341 0.24216011]
[0.52684057 0.1880351  0.0353572  0.52406328]
[0.46844875 0.34093674 0.11623786 0.4501672 ]
[0.52749124 0.28380547 0.08054555 0.64064968]
[0.48740171 0.20688822 0.04280274 0.47054494]
[0.60959278 0.36110714 0.13039836 0.72745866]
[0.46205482 0.28562537 0.08158185 0.50845269]
[0.38785529 0.30373638 0.09225579 0.23048321]
[0.49993932 0.27156265 0.07374627 0.56564689]
[0.34597788 0.20931134 0.04381124 0.31687977]
[0.44731252 0.21410308 0.04584013 0.47267288]
[0.56287759 0.28666572 0.08217724 0.57668512]
[0.48431986 0.27988486 0.07833554 0.43704889]
[0.5515761  0.25583266 0.06545035 0.52672816]
[0.52077876 0.20510717 0.04206895 0.49089099]
[0.52832683 0.26517422 0.07031737 0.61723108]
[0.60950101 0.30899555 0.09547825 0.59768661]
[0.5317838  0.23340912 0.05447982 0.54604376]
[0.71421776 0.23408158 0.05479418 0.74955583]
[0.54219016 0.26431447 0.06986214 0.51706332]
[0.37480322 0.26050611 0.06786343 0.36159253]
[0.5680988  0.25268233 0.06384836 0.64501924]
[0.74891307 0.23515069 0.05529585 0.82209967]
[0.43078133 0.22272469 0.04960629 0.43912866]
[0.65334281 0.30188337 0.09113357 0.72222631]
[0.4531219  0.22910853 0.05249072 0.51804137]
[0.67788472 0.18962024 0.03595583 0.67788135]
[0.6499168  0.19122758 0.03656799 0.61383928]
[0.42495252 0.29680437 0.08809283 0.3379556 ]
[0.50307818 0.30157503 0.0909475  0.50397708]
[0.46484501 0.1890581  0.03574297 0.4171647 ]
[0.59471559 0.19747726 0.03899727 0.56345615]
[0.48477283 0.35739774 0.12773314 0.44836628]
[0.40413    0.32878447 0.10809922 0.2725186 ]
[0.48141142 0.29460981 0.08679494 0.46113144]
[0.67619087 0.2626945  0.0690084  0.69616871]
[0.56192658 0.23454581 0.05501174 0.55768456]
[0.4977999  0.29146413 0.08495134 0.4082904 ]
[0.47698402 0.22334966 0.04988507 0.45770881]
[0.45398138 0.24183675 0.05848501 0.43236967]
[0.60792486 0.31467246 0.09901876 0.57442367]
[0.66431042 0.22919507 0.05253038 0.70726039]
[0.42731857 0.29174593 0.08511569 0.35914131]
[0.54323732 0.23878899 0.05702018 0.63274154]
[0.50617245 0.21764041 0.04736735 0.51577218]
[0.58707396 0.28107661 0.07900406 0.7394944 ]
[0.44182234 0.25989591 0.06754589 0.36091067]
[0.57569193 0.24251748 0.05881473 0.61517235]
[0.46856958 0.32440582 0.10523914 0.51346912]
[0.45137658 0.33483225 0.11211264 0.24089213]
[0.43797399 0.2980154  0.08881318 0.40629277]
[0.44570803 0.37418828 0.14001687 0.24745882]
[0.38397471 0.29309805 0.08590647 0.29682558]
[0.47396194 0.26314725 0.06924648 0.55343599]
[0.45495112 0.30583919 0.09353761 0.4453457 ]
[0.43297001 0.26252298 0.06891831 0.41391171]
[0.58480689 0.25705444 0.06607698 0.67904126]
[0.4908762  0.31565538 0.09963832 0.39117767]
[0.45915894 0.29656225 0.08794917 0.36305672]
[0.62215236 0.28011825 0.07846624 0.70600107]
[0.55484146 0.29518223 0.08713255 0.59183629]
[0.49088505 0.31434953 0.09881563 0.47493063]
[0.47689788 0.31378366 0.09846018 0.4785965 ]
[0.5180101  0.29725188 0.08835868 0.44664565]
[0.49837295 0.215636   0.04649888 0.49656958]
[0.58442387 0.25927308 0.06722253 0.55222608]
[0.48222962 0.27688275 0.07666406 0.53143703]
[0.58232209 0.31350058 0.09828261 0.64128662]
[0.36178594 0.22978261 0.05280005 0.3152662 ]
[0.55403938 0.32287797 0.10425018 0.58424313]
[0.55829994 0.29292372 0.0858043  0.56573542]
[0.5084463  0.34073666 0.11610147 0.45659774]
[0.52237792 0.27618366 0.07627741 0.49150184]
[0.56165311 0.32518329 0.10574417 0.52359274]
[0.4144933  0.28547911 0.08149832 0.36801742]
[0.55133932 0.22029963 0.04853193 0.52876439]
[0.44003131 0.23954358 0.05738113 0.43033923]
[0.57559271 0.17382175 0.030214   0.53950967]
[0.51132622 0.27051493 0.07317833 0.47627933]
[0.42938162 0.25182994 0.06341832 0.45788651]
[0.53725088 0.30432016 0.09261076 0.52070271]
[0.48343027 0.29327521 0.08601035 0.47430305]
[0.51184538 0.28152887 0.0792585  0.54598576]
[0.43746478 0.23588935 0.05564379 0.42444445]
[0.45524004 0.26288337 0.06910767 0.45290548]
[0.53729861 0.2754977  0.07589899 0.4815131 ]
[0.59380917 0.16424953 0.02697791 0.54856519]
[0.30871129 0.27734794 0.07692188 0.31821425]
[0.38218845 0.23325285 0.05440689 0.30076233]
[0.53898731 0.32158387 0.10341619 0.55009742]
[0.40755713 0.29805488 0.08883671 0.31980619]
[0.65734924 0.3019243  0.09115828 0.69700822]
[0.5215057  0.27758537 0.07705364 0.53094547]
[0.53677723 0.30478775 0.09289557 0.46239423]
[0.44631455 0.3057857  0.0935049  0.36818857]
[0.55026789 0.28302105 0.08010092 0.6019218 ]
[0.55923516 0.25261752 0.06381561 0.58655845]
[0.61798435 0.19739903 0.03896638 0.5617763 ]
[0.55632753 0.25780103 0.06646137 0.50708262]
[0.39737626 0.3295018  0.10857144 0.21932965]
[0.52499161 0.31967614 0.10219283 0.6118465 ]
[0.54986429 0.30907706 0.09552863 0.57090154]
[0.50227031 0.33137177 0.10980725 0.44145671]
[0.56654539 0.27289488 0.07447161 0.59928589]
[0.58165489 0.29738201 0.08843606 0.57180396]
[0.60598034 0.28063603 0.07875658 0.68886089]
[0.45792703 0.28624618 0.08193688 0.46345156]
[0.51466079 0.38067424 0.14491288 0.5285833 ]
[0.63016913 0.27907019 0.07788017 0.57027635]
[0.4341039  0.3371545  0.11367316 0.29847213]
[0.46857261 0.26201342 0.06865103 0.44309359]
[0.50427499 0.32770072 0.10738776 0.48835648]
[0.48150341 0.31742144 0.10075637 0.50900034]
[0.3697662  0.27394611 0.07504647 0.34944605]
[0.56686553 0.23983853 0.05752252 0.55768928]
[0.53206889 0.16451507 0.02706521 0.57681713]
[0.59251206 0.3277196  0.10740014 0.61768339]
[0.54154069 0.2393051  0.05726693 0.51415988]
[0.53490874 0.29275841 0.08570749 0.6083203 ]
[0.43858967 0.26058807 0.06790614 0.4315554 ]
[0.70108655 0.28232274 0.07970613 0.7839169 ]
[0.54419833 0.24020108 0.05769656 0.5625239 ]
[0.57280527 0.32205688 0.10372063 0.57672291]
[0.37090254 0.25219687 0.06360326 0.38815147]
[0.57573701 0.34805242 0.12114048 0.62149974]
[0.52920474 0.24359856 0.05934026 0.52889229]
[0.65198829 0.31007429 0.09614607 0.71393828]
[0.46910479 0.29923547 0.08954187 0.49235925]
[0.47723961 0.24009645 0.0576463  0.37571326]
[0.46142662 0.27133787 0.07362424 0.56218347]
[0.36637387 0.1770849  0.03135906 0.35268693]
[0.49972281 0.21187601 0.04489145 0.56099724]
[0.4331317  0.2719347  0.07394848 0.40488154]
[0.54791367 0.21808583 0.04756143 0.62070914]
[0.36044717 0.23158035 0.05362946 0.29807511]
[0.52203036 0.30888204 0.09540811 0.57186458]
[0.59351776 0.21730897 0.04722319 0.59303593]
[0.46342291 0.23281543 0.05420303 0.44021249]
[0.41242155 0.33476778 0.11206947 0.36868678]
[0.50028394 0.29110425 0.08474168 0.54399951]
[0.53194132 0.2802444  0.07853692 0.58308842]
[0.39287578 0.26430233 0.06985572 0.40063187]
[0.54726102 0.26695669 0.07126588 0.46597997]
[0.47954247 0.34544853 0.11933469 0.4095211 ]
[0.44868556 0.28541174 0.08145986 0.48098762]
[0.49540939 0.24147515 0.05831025 0.50156951]
[0.42392088 0.28442782 0.08089918 0.33943664]
[0.69184813 0.25083508 0.06291824 0.75729622]
[0.63876514 0.171262   0.02933067 0.60241584]
[0.61723487 0.20525887 0.0421312  0.61099675]
[0.52213779 0.28055545 0.07871136 0.54138152]
[0.50853333 0.28904761 0.08354852 0.42917672]
[0.40804644 0.29481763 0.08691743 0.3119386 ]
[0.37278675 0.1872563  0.03506492 0.30018038]
[0.53225337 0.28232333 0.07970646 0.55509032]
[0.25467977 0.24490677 0.05997932 0.19941961]
[0.4491289  0.30372114 0.09224653 0.29584757]
[0.48493465 0.29839987 0.08904248 0.3700429 ]
[0.64602669 0.37266677 0.13888052 0.79820088]
[0.56697182 0.23099839 0.05336026 0.53644022]
[0.39520759 0.38473357 0.14801992 0.20540255]
[0.44567713 0.25442829 0.06473376 0.41486992]
[0.37219803 0.24631466 0.06067091 0.39080492]
[0.45854063 0.32610087 0.10634178 0.48657746]
[0.51807863 0.29290799 0.08579509 0.54378973]
[0.50622982 0.19155261 0.0366924  0.49257395]
[0.60821562 0.21095575 0.04450233 0.65342453]
[0.52113802 0.28471039 0.08106001 0.57164444]
[0.36810405 0.30947649 0.0957757  0.20755484]
[0.50629371 0.31373795 0.0984315  0.5957522 ]
[0.40165189 0.31274354 0.09780852 0.26087245]
[0.55735464 0.287727   0.08278683 0.52907534]
[0.59244547 0.22389863 0.0501306  0.53337336]
[0.3734212  0.17146656 0.02940078 0.38749509]
[0.52931548 0.2850684  0.08126399 0.49353971]
[0.6013047  0.30734765 0.09446258 0.6281676 ]
[0.50314906 0.26618381 0.07085382 0.47202416]
[0.69614554 0.21372259 0.04567735 0.73251432]
[0.26990616 0.24156969 0.05835591 0.19436996]
[0.50080084 0.25214668 0.06357795 0.47489805]
[0.61753274 0.29733344 0.08840717 0.72801727]
[0.55146337 0.22897389 0.05242904 0.49136821]
[0.48372217 0.28193036 0.07948473 0.45633375]
[0.55858652 0.22678269 0.05143039 0.5408642 ]
[0.52157782 0.2508689  0.0629352  0.41038913]
[0.63170505 0.32034281 0.10261952 0.76493386]
[0.39712487 0.32505939 0.10566361 0.30417732]
[0.5512487  0.28439308 0.08087942 0.61161477]
[0.5953483  0.33609097 0.11295714 0.60427209]
[0.42987221 0.2886622  0.08332587 0.39839853]
[0.53086182 0.20743894 0.04303091 0.53710475]
[0.48036359 0.29682418 0.0881046  0.4822168 ]
[0.39383072 0.19814413 0.0392611  0.40186491]
[0.60030428 0.34404549 0.1183673  0.77493652]
[0.32819967 0.28874115 0.08337145 0.23570859]
[0.60424015 0.28694245 0.08233597 0.6521271 ]
[0.57547713 0.20010883 0.04004355 0.59968206]
[0.41280292 0.23337265 0.05446279 0.51182559]
[0.51269857 0.30893813 0.09544277 0.38068002]
[0.55245597 0.21876752 0.04785923 0.53990935]
[0.52395819 0.32758501 0.10731194 0.5355545 ]
[0.48163381 0.26497403 0.07021124 0.55572388]
[0.45895783 0.25389417 0.06446225 0.47068109]
[0.62059548 0.27535012 0.07581769 0.71964679]
[0.46321613 0.2877935  0.0828251  0.43812142]
[0.51019634 0.25188219 0.06344464 0.51309832]
[0.61422521 0.22492426 0.05059092 0.71131987]
[0.55805345 0.28457333 0.08098198 0.60227914]
[0.52526722 0.27320942 0.07464339 0.5753117 ]
[0.449632   0.26104039 0.06814209 0.40532253]
[0.30317473 0.27722814 0.07685544 0.13739556]
[0.46227561 0.21759464 0.04734743 0.44534393]
[0.31771697 0.2869438  0.08233674 0.24448333]
[0.61830732 0.18399483 0.0338541  0.66300433]
[0.45951489 0.31627728 0.10003132 0.39915607]
[0.47678137 0.31228564 0.09752232 0.42715909]
[0.43452976 0.32008786 0.10245624 0.31736417]
[0.47889855 0.35269442 0.12439335 0.59039134]
[0.62923313 0.27393833 0.07504221 0.7042091 ]
[0.41915284 0.2866441  0.08216484 0.35970887]
[0.52490099 0.27472766 0.07547529 0.56378988]
[0.434151   0.25925291 0.06721207 0.34912472]
[0.5448957  0.24595101 0.0604919  0.51586222]
[0.62460845 0.30544081 0.09329409 0.71631786]
[0.5282233  0.22740322 0.05171222 0.49877803]
[0.50101221 0.25993844 0.06756799 0.50687459]
[0.40017947 0.32128343 0.10322304 0.31218891]
[0.39224    0.24181375 0.05847389 0.34827178]
[0.51591085 0.26457689 0.07000093 0.45202416]
[0.52885059 0.25509785 0.06507491 0.60261897]
[0.46244075 0.1729144  0.02989939 0.51577627]
[0.63002581 0.28633338 0.08198681 0.73352992]
[0.63162134 0.2402615  0.05772559 0.6613446 ]
[0.42220158 0.34444504 0.11864238 0.25524237]
[0.54330472 0.26151496 0.06839008 0.53829849]
[0.60318006 0.24887406 0.0619383  0.62544378]
[0.38189546 0.20985787 0.04404032 0.40772052]
[0.50216878 0.2469888  0.06100347 0.52199969]
[0.41500951 0.26947158 0.07261493 0.36662553]
[0.45523179 0.35079252 0.12305539 0.36460891]
[0.54659089 0.24877629 0.06188964 0.46472856]
[0.62481355 0.32587849 0.10619679 0.68279895]
[0.53507174 0.24320845 0.05915035 0.50996474]
[0.58509457 0.25375281 0.06439049 0.6449484 ]
[0.54548876 0.23454575 0.05501171 0.59246285]
[0.59087212 0.30431768 0.09260925 0.64087857]
[0.57929686 0.23660309 0.05598102 0.62812605]
[0.56450557 0.300682   0.09040966 0.56672102]
[0.56245931 0.34920327 0.12194292 0.51603252]
[0.36021402 0.17657744 0.03117959 0.38053811]
[0.50572644 0.25211651 0.06356274 0.59081324]
[0.52036831 0.23408046 0.05479366 0.53929041]
[0.56172523 0.20558002 0.04226315 0.54677617]
[0.53347502 0.27453749 0.07537083 0.52959673]
[0.54538901 0.22356216 0.04998004 0.54539842]
[0.43352888 0.25924065 0.06720571 0.3999746 ]
[0.55922245 0.32427984 0.10515741 0.60202618]
[0.49069869 0.31964121 0.1021705  0.43721816]
[0.441587   0.27468778 0.07545337 0.48879845]
[0.46687943 0.21482979 0.04615184 0.44948865]
[0.50752208 0.29184789 0.08517519 0.63991398]
[0.57673748 0.25754569 0.06632978 0.63059669]
[0.41982201 0.19533172 0.03815448 0.39512132]
[0.51206457 0.26543787 0.07045726 0.53435415]
[0.43932907 0.25813738 0.06663491 0.48377149]
[0.39550565 0.28706954 0.08240892 0.35441759]
[0.46995218 0.33600359 0.11289841 0.51643031]
[0.31727244 0.27846064 0.07754033 0.27581343]
[0.3773953  0.32193679 0.1036433  0.29418354]
[0.4632503  0.25420146 0.06461838 0.41290409]
[0.47301232 0.33040518 0.10916759 0.47734716]
[0.54842646 0.29270073 0.08567372 0.56559583]
[0.40960304 0.32104674 0.10307101 0.2364158 ]
[0.45170834 0.26840141 0.07203932 0.45022126]
[0.6026263  0.27495208 0.07559865 0.7061003 ]
[0.49384806 0.25761962 0.06636787 0.52387254]
[0.37113527 0.30348888 0.0921055  0.28181822]
[0.4391873  0.2859697  0.08177867 0.33042821]
[0.42203445 0.21329268 0.04549377 0.39162042]
[0.51740664 0.24283941 0.05897098 0.50549239]
[0.59191374 0.27863339 0.07763657 0.60302547]
[0.5687943  0.27081391 0.07334018 0.63810878]
[0.4563138  0.31351423 0.09829117 0.30535734]
[0.32671254 0.32498116 0.10561276 0.20722686]
[0.55794093 0.289396   0.08375005 0.53276625]
[0.47375208 0.25085755 0.06292951 0.58958486]
[0.33173386 0.15696346 0.02463753 0.35839321]
[0.48770461 0.30690229 0.09418902 0.4928137 ]
[0.5799843  0.25152501 0.06326483 0.56996191]
[0.62032121 0.26466511 0.07004762 0.64332569]
[0.45404737 0.31312975 0.09805024 0.31989697]
[0.51628068 0.2953587  0.08723676 0.56641453]
[0.56381364 0.29122637 0.0848128  0.51082836]
[0.69111542 0.2180931  0.0475646  0.74614067]
[0.6500596  0.35873504 0.12869083 0.78966747]
[0.55787276 0.24672574 0.06087359 0.55354228]
[0.40654062 0.24359269 0.0593374  0.32496533]
[0.68830276 0.2465069  0.06076565 0.75478042]
[0.41117361 0.21580916 0.04657359 0.35382058]
[0.65706832 0.27521107 0.07574113 0.64676074]
[0.53618833 0.22877486 0.05233794 0.54091155]
[0.39647373 0.24954775 0.06227408 0.3430097 ]
[0.32199498 0.21670401 0.04696063 0.27297535]
[0.52607765 0.21531604 0.046361   0.48873774]
[0.53583032 0.22657971 0.05133836 0.51619745]
[0.52235085 0.29411554 0.08650395 0.52569565]
[0.33888867 0.22838548 0.05215993 0.33069376]
[0.3925327  0.29708049 0.08825682 0.35420794]
[0.48745555 0.28940634 0.08375603 0.50751882]
[0.41224082 0.24401236 0.05954203 0.29841453]
[0.69986052 0.26691401 0.07124309 0.78758488]
[0.625707   0.21329757 0.04549585 0.67624169]
[0.5659193  0.26782384 0.07172961 0.53734301]
[0.40444263 0.30660529 0.0940068  0.2832799 ]
[0.52038326 0.28358969 0.08042311 0.66127145]
[0.4405342  0.31199848 0.09734305 0.44421803]
[0.44711626 0.32814014 0.10767595 0.36946123]
[0.51659995 0.33681547 0.11344466 0.63745174]
[0.48145452 0.36890996 0.13609456 0.57041052]
[0.6367331  0.16513338 0.02726903 0.67451961]
[0.58387447 0.27220599 0.0740961  0.55756319]
[0.36818529 0.27842215 0.07751889 0.42138444]
[0.40388377 0.27814087 0.07736235 0.41511233]
[0.39986788 0.27280966 0.07442511 0.38796921]
[0.50414969 0.336976   0.11355283 0.48742061]
[0.50665347 0.23676965 0.05605987 0.52930583]
[0.3948239  0.25616255 0.06561925 0.45738355]
[0.39140705 0.29209621 0.08532019 0.29325689]
[0.55823109 0.34494756 0.11898882 0.53528593]
[0.50325014 0.35467743 0.12579608 0.53408791]
[0.40032272 0.32215276 0.1037824  0.2234335 ]
[0.64089986 0.27227191 0.07413199 0.72385323]
[0.52024622 0.33456211 0.1119318  0.57588775]
[0.50848574 0.19867936 0.03947349 0.49205296]
[0.50323723 0.29459584 0.08678671 0.47323278]
[0.45402248 0.29282492 0.08574644 0.51167409]
[0.55090671 0.16633148 0.02766616 0.629201  ]
[0.41909435 0.31642858 0.10012705 0.4946068 ]
[0.38062328 0.27391976 0.07503204 0.26901423]
[0.51328644 0.27638976 0.0763913  0.52976066]
[0.42846232 0.27917325 0.0779377  0.37356462]
[0.45945023 0.23239864 0.05400913 0.55569105]
[0.67623308 0.26007939 0.06764129 0.75367343]
[0.46424268 0.30715887 0.09434657 0.48657435]
[0.54517257 0.26844886 0.07206479 0.62381372]
[0.50389016 0.30066058 0.09039678 0.48287827]
[0.56992566 0.22594708 0.05105208 0.65191605]
[0.59811176 0.26671118 0.07113485 0.66310523]
[0.33270264 0.26849454 0.07208932 0.33580383]
[0.42476585 0.2716902  0.07381557 0.30330106]
[0.4932877  0.29192635 0.085221   0.42367011]
[0.40015605 0.20738277 0.04300761 0.4302094 ]
[0.35477787 0.23916459 0.0571997  0.3486005 ]
[0.32627614 0.2066818  0.04271737 0.31864195]
[0.55169551 0.28954798 0.08383803 0.68560323]
[0.51939711 0.22098521 0.04883447 0.48685746]
[0.51811709 0.28154493 0.07926755 0.47722869]
[0.5244387  0.30769912 0.09467875 0.54970848]
[0.4741471  0.3199474  0.10236634 0.51014883]
[0.55272628 0.26278015 0.06905341 0.53802187]
[0.5351324  0.28961704 0.08387803 0.53930226]
[0.58812265 0.1728855  0.0298894  0.59972948]
[0.5014764  0.32140252 0.10329958 0.67265572]
[0.36302416 0.30005033 0.0900302  0.28471621]
[0.60588209 0.262817   0.06907278 0.55252938]
[0.43002202 0.3207041  0.10285112 0.45368134]
[0.39988407 0.32529645 0.10581778 0.370387  ]
[0.51114187 0.2775923  0.07705749 0.53215526]
[0.39674465 0.32936048 0.10847833 0.22059759]
[0.65708111 0.2577026  0.06641063 0.67277391]
[0.48631648 0.31669369 0.10029489 0.56126036]
[0.3913162  0.22829761 0.0521198  0.45370492]
[0.48015478 0.29671637 0.0880406  0.46271656]
[0.58581123 0.19834961 0.03934257 0.53535217]
[0.29419925 0.18430347 0.03396777 0.28818757]
[0.37196617 0.30401616 0.09242583 0.25414569]
[0.59501831 0.24124307 0.05819822 0.63863643]
[0.55550422 0.3368157  0.11344482 0.6319679 ]
[0.58164014 0.24385269 0.05946413 0.59078975]
[0.40229312 0.1913434  0.0366123  0.39717555]
[0.61443223 0.34466878 0.11879657 0.78904873]
[0.46775167 0.24203778 0.05858229 0.54466268]
[0.51381843 0.27168919 0.07381502 0.52042459]
[0.59579225 0.24024324 0.05771681 0.64412091]
[0.38188894 0.28050274 0.07868179 0.29674321]
[0.6481759  0.29918795 0.08951343 0.78933295]
[0.47950643 0.36640359 0.13425159 0.46090405]
[0.54247843 0.32994512 0.10886378 0.55448283]
[0.60476344 0.30910462 0.09554566 0.68817775]
[0.59815725 0.29828654 0.08897486 0.59389004]
[0.56475584 0.21815871 0.04759322 0.56849939]
[0.62939796 0.25755247 0.06633328 0.72496922]
[0.64364165 0.21602595 0.04666721 0.67122099]
[0.56884752 0.27676816 0.07660061 0.52743422]
[0.52110312 0.26980397 0.07279418 0.47812474]
[0.36059867 0.27946489 0.07810063 0.21717722]
[0.53341833 0.22822082 0.05208474 0.58949391]
[0.53785386 0.27649709 0.07645064 0.55217005]
[0.45357498 0.2738872  0.0750142  0.40407548]
[0.57686186 0.29511707 0.08709409 0.63139741]
[0.45674937 0.35359241 0.12502759 0.37891925]
[0.51259264 0.23494518 0.05519924 0.5251861 ]
[0.50556331 0.2961217  0.08768806 0.40570417]
[0.53401205 0.36257609 0.13146142 0.62180504]
[0.45169773 0.2766122  0.07651431 0.43557068]
[0.37001592 0.26245726 0.06888381 0.41198483]
[0.57992437 0.23631681 0.05584564 0.57421608]
[0.53930129 0.26755034 0.07158319 0.65740088]
[0.49128418 0.27588413 0.07611205 0.56425688]
[0.58509959 0.32544845 0.10591669 0.54640196]
[0.39245211 0.29695538 0.0881825  0.36115691]
[0.46713159 0.31361448 0.09835404 0.46446737]
[0.4915544  0.32769637 0.10738491 0.55753499]
[0.33391326 0.21224624 0.04504847 0.37449761]
[0.50316017 0.28309981 0.0801455  0.45081199]
[0.45699782 0.26956864 0.07266725 0.45098449]
[0.45021409 0.31314054 0.098057   0.36732823]
[0.67023748 0.29011654 0.0841676  0.67523008]
[0.5513787  0.22000681 0.048403   0.65954788]
[0.53074458 0.24248374 0.05879836 0.50252138]
[0.68323019 0.21700381 0.04709065 0.71619661]
[0.51499163 0.27487265 0.07555497 0.5345456 ]
[0.33249666 0.14391983 0.02071292 0.33918712]
[0.49364946 0.29827176 0.08896604 0.49579741]
[0.50735653 0.28341731 0.08032537 0.49703654]
[0.43093282 0.2774394  0.07697262 0.37768597]
[0.61425284 0.28127828 0.07911747 0.68107579]
[0.57836604 0.3015689  0.0909438  0.65967044]
[0.49090956 0.31497569 0.09920969 0.42955547]
[0.52006977 0.23900426 0.05712304 0.47592796]
[0.48159558 0.21321349 0.04545999 0.49414524]
[0.66291583 0.23559868 0.05550674 0.72138834]
[0.36694053 0.23689898 0.05612113 0.36365379]
[0.77299433 0.23712643 0.05622894 0.8801074 ]
[0.55793063 0.27070231 0.07327974 0.54856422]
[0.47040279 0.23974737 0.0574788  0.4918013 ]
[0.61860872 0.27576802 0.076048   0.64069914]
[0.44056207 0.26689453 0.07123269 0.35869192]
[0.47989031 0.29001582 0.08410918 0.43640204]
[0.35170483 0.148071   0.02192502 0.33342875]
[0.45446774 0.18275264 0.03339853 0.46828516]
[0.55723918 0.25477813 0.0649119  0.58528298]
[0.66049567 0.27301902 0.07453939 0.67698001]
[0.50561503 0.3097663  0.09595516 0.6125146 ]
[0.4423433  0.3157257  0.09968272 0.51248216]
[0.42249054 0.26539695 0.07043554 0.4035771 ]
[0.5386193  0.30345819 0.09208687 0.54416713]
[0.48487354 0.30671681 0.0940752  0.59230696]
[0.48832038 0.30510645 0.09308995 0.48869455]
[0.61848309 0.25188377 0.06344543 0.59428369]
[0.4393994  0.19618146 0.03848717 0.41956666]
[0.41798498 0.28238479 0.07974117 0.35639713]
[0.54836622 0.23365941 0.05459672 0.52647123]
[0.4911576  0.3896665  0.15183998 0.3911399 ]
[0.41393356 0.25300905 0.06401358 0.33590997]
[0.5480432  0.30163375 0.09098292 0.60464635]
[0.36715948 0.20718131 0.04292409 0.3378345 ]
[0.40391293 0.21531656 0.04636122 0.36812851]
[0.43090693 0.26490852 0.07017653 0.34042745]
[0.35908409 0.23914575 0.05719069 0.37954411]
[0.37450519 0.21657019 0.04690265 0.31290832]
[0.60094674 0.30019308 0.09011589 0.70593904]
[0.53277618 0.26185381 0.06856742 0.55150098]
[0.47830899 0.23703954 0.05618774 0.47586425]
[0.40513643 0.21793672 0.04749641 0.40666655]
[0.44937101 0.23055753 0.05315678 0.53242244]
[0.44641236 0.22030782 0.04853553 0.41569663]
[0.66726383 0.31854839 0.10147308 0.8151817 ]
[0.57205379 0.23821324 0.05674555 0.52466311]
[0.57076973 0.26207275 0.06868213 0.61825565]
[0.52883286 0.2943905  0.08666577 0.59079645]
[0.42816832 0.26119104 0.06822076 0.48301643]
[0.47028963 0.22926383 0.0525619  0.51956334]
[0.43858448 0.22808718 0.05202376 0.41083779]
[0.48313843 0.30659682 0.09400161 0.44334   ]
[0.35338596 0.26518776 0.07032455 0.32831574]
[0.53610737 0.3564432  0.12705176 0.60359284]
[0.51263922 0.25397336 0.06450247 0.5742589 ]
[0.62141589 0.31798756 0.10111609 0.63394448]
[0.47167952 0.1868525  0.03491386 0.47867416]
[0.46698307 0.31821729 0.10126224 0.46158634]
[0.59967753 0.31482511 0.09911485 0.67116569]
[0.46806483 0.25364875 0.06433769 0.45998918]
[0.54527896 0.24897709 0.06198959 0.58743084]
[0.48052198 0.2501805  0.06259028 0.48114276]
[0.59007441 0.32901954 0.10825386 0.6332436 ]
[0.60323807 0.28875237 0.08337793 0.68525131]
[0.5798612  0.3273324  0.1071465  0.62162851]
[0.40885408 0.28785512 0.08286057 0.32295369]
[0.31615527 0.22790252 0.05193956 0.33052001]
[0.36519803 0.28274137 0.07994268 0.26177515]
[0.58555102 0.25240311 0.06370733 0.58659454]
[0.49644812 0.19558186 0.03825226 0.44403073]
[0.41470454 0.29670923 0.08803637 0.38296145]
[0.53933661 0.19190437 0.03682729 0.48674134]
[0.61559373 0.278364   0.07748652 0.71532938]
[0.39454454 0.29492961 0.08698348 0.27838098]
[0.32271638 0.18212303 0.0331688  0.32862882]
[0.34770025 0.21048629 0.04430448 0.40210371]
[0.54713952 0.17554239 0.03081513 0.53340686]
[0.48475896 0.35328374 0.1248094  0.53710403]
[0.42244936 0.22985082 0.0528314  0.42685044]
[0.40446366 0.24457123 0.05981509 0.40287129]
[0.51430751 0.2945734  0.08677349 0.54956011]
[0.44229795 0.32631911 0.10648416 0.36479601]
[0.61276743 0.22569523 0.05093834 0.65924136]
[0.62474431 0.20516963 0.04209458 0.62967757]
[0.52881955 0.25827351 0.06670521 0.51558457]
[0.46072553 0.25460273 0.06482255 0.42509719]
[0.49866281 0.16358652 0.02676055 0.50416505]
[0.48115818 0.2811492  0.07904488 0.43673997]
[0.38729666 0.16929813 0.02866186 0.46929431]
[0.59154641 0.24757144 0.06129162 0.58943497]
[0.55482284 0.25717357 0.06613825 0.5260473 ]
[0.48164417 0.29812893 0.08888086 0.4208268 ]
[0.37032775 0.27343781 0.07476823 0.32076429]
[0.48656295 0.2865437  0.08210729 0.55344196]
[0.49869629 0.26834871 0.07201103 0.57061831]
[0.41390745 0.31081127 0.09660365 0.31237306]
[0.62267094 0.22388698 0.05012538 0.56364447]
[0.54516823 0.2366811  0.05601794 0.52740304]
[0.49283339 0.29719941 0.08832749 0.52166857]
[0.51410291 0.26936797 0.0725591  0.61840736]
[0.49819945 0.2908604  0.08459977 0.46027332]
[0.37107318 0.30824679 0.09501609 0.30182478]
[0.39029389 0.24009783 0.05764697 0.30638928]
[0.42995263 0.33286515 0.11079921 0.22675924]
[0.29527199 0.2844206  0.08089508 0.18595818]
[0.29717765 0.29812976 0.08888135 0.20145567]
[0.39642626 0.2019102  0.04076773 0.4303593 ]
[0.35643387 0.32743362 0.10721278 0.14277399]
[0.51698245 0.2810552  0.07899203 0.61236538]
[0.70394813 0.21518522 0.04630468 0.76550564]
[0.4523048  0.24050161 0.05784102 0.392968  ]
[0.70925476 0.23520862 0.05532309 0.81154883]
[0.32424855 0.31547844 0.09952665 0.2234172 ]
[0.41000802 0.26221107 0.06875464 0.42425978]
[0.58669267 0.25998234 0.06759081 0.52352865]
[0.41870174 0.33296745 0.11086732 0.40465402]
[0.50090414 0.32741033 0.10719753 0.62464525]
[0.57685354 0.27391723 0.07503065 0.48030393]
[0.42821568 0.30617882 0.09374547 0.31716641]
[0.50683357 0.23677404 0.05606195 0.52159915]
[0.52617006 0.29249368 0.08555255 0.57179285]
[0.45919504 0.29419446 0.08655038 0.48712881]
[0.34574951 0.25362921 0.06432778 0.33831358]
[0.65747503 0.26200691 0.06864762 0.67921299]
[0.5471567  0.29988179 0.08992909 0.58788444]
[0.51387125 0.34927187 0.12199084 0.50490806]
[0.34781721 0.29367198 0.08624323 0.34611463]
[0.60732448 0.22518659 0.050709   0.65778994]
[0.53186637 0.30618481 0.09374914 0.57356725]
[0.44048965 0.31214384 0.09743378 0.35420526]
[0.46895108 0.28922071 0.08364862 0.39284653]
[0.6067665  0.28121316 0.07908084 0.6681435 ]
[0.45995327 0.25407639 0.06455481 0.43047398]
[0.64226029 0.20911697 0.04372991 0.60909936]
[0.60176567 0.29197654 0.0852503  0.65156713]
[0.4976158  0.31326281 0.09813359 0.47940581]
[0.51644469 0.30415513 0.09251034 0.63640462]
[0.45223578 0.27556323 0.0759351  0.41740925]
[0.32095664 0.27961667 0.07818548 0.26863976]
[0.59636859 0.26780765 0.07172094 0.63403518]
[0.53995996 0.21452167 0.04601955 0.54046489]
[0.45808769 0.35170816 0.12369863 0.34517555]
[0.52556083 0.26107591 0.06816063 0.57310466]
[0.43201087 0.22308654 0.0497676  0.46828013]
[0.39782622 0.23190551 0.05378017 0.34224342]
[0.47781222 0.27223519 0.074112   0.46565611]
[0.41568324 0.21874892 0.04785109 0.42343384]
[0.50274622 0.30428617 0.09259008 0.52282977]
[0.54266678 0.28698904 0.08236271 0.47352488]
[0.45751987 0.229356   0.05260417 0.50472574]
[0.59561963 0.30397032 0.09239795 0.65692737]
[0.39371345 0.28215706 0.0796126  0.33402435]
[0.46943685 0.29647876 0.08789966 0.53271956]
[0.600634   0.30878794 0.09534999 0.67350553]
[0.56913176 0.25856013 0.06685334 0.61235407]
[0.46651506 0.37089942 0.13756638 0.35893892]
[0.39534819 0.22130236 0.04897473 0.30607195]
[0.48698431 0.35684269 0.12733671 0.57342595]
[0.53965936 0.2027992  0.04112752 0.52869196]
[0.41059538 0.27143322 0.07367599 0.3311286 ]
[0.4588579  0.30096049 0.09057722 0.49425855]
[0.34227661 0.23693156 0.05613656 0.20663712]
[0.43506957 0.25176963 0.06338794 0.40912277]
[0.52193199 0.29551587 0.08732963 0.55620232]
[0.59332016 0.32064121 0.10281078 0.69238807]
[0.44537224 0.23489145 0.05517399 0.42169969]
[0.52776719 0.29728886 0.08838067 0.46747137]
[0.53658794 0.35144596 0.12351426 0.52848569]
[0.45668616 0.24989711 0.06244857 0.4272434 ]
[0.5106457  0.27959698 0.07817447 0.43572842]
[0.71828762 0.19080645 0.0364071  0.78957287]
[0.47487241 0.27457335 0.07539053 0.4526901 ]
[0.52507284 0.2667359  0.07114804 0.51073523]
[0.34444992 0.2164216  0.04683831 0.26829416]
[0.23136607 0.11580111 0.0134099  0.24851882]
[0.53439866 0.26161268 0.06844119 0.61719944]
[0.35472853 0.33725608 0.11374166 0.24533611]
[0.52050932 0.30444083 0.09268422 0.44587684]
[0.4692527  0.24759855 0.06130504 0.55411181]
[0.50962961 0.34027995 0.11579045 0.49226832]
[0.55801079 0.25475729 0.06490127 0.5789185 ]
[0.64080213 0.33699832 0.11356787 0.74175062]
[0.49980022 0.27450398 0.07535243 0.45254281]
[0.52241029 0.24393854 0.05950601 0.54388567]
[0.50588204 0.25832444 0.06673152 0.54239141]
[0.54389794 0.20712965 0.04290269 0.65470056]
[0.52377951 0.27374325 0.07493537 0.52433907]
[0.58499268 0.35474178 0.12584173 0.67874147]
[0.33684374 0.26570804 0.07060076 0.27668932]
[0.34078852 0.16877131 0.02848376 0.35037338]
[0.38118553 0.3163496  0.10007707 0.30168348]
[0.4585017  0.16199869 0.02624358 0.45157243]
[0.63572841 0.12025014 0.0144601  0.6582271 ]
[0.50461131 0.24962892 0.0623146  0.51112591]
[0.49083267 0.29745049 0.08847679 0.37286378]
[0.35617406 0.26832287 0.07199716 0.37836445]
[0.4506955  0.27635136 0.07637008 0.51852945]
[0.47809094 0.27245094 0.07422951 0.60951192]
[0.66205698 0.28378966 0.08053657 0.65991948]
[0.54069074 0.28261214 0.07986962 0.53973172]
[0.438263   0.18756774 0.03518166 0.39078715]
[0.61667906 0.34240327 0.11724    0.69023436]
[0.51053029 0.30001638 0.09000983 0.58800001]
[0.48055694 0.27777498 0.07715894 0.54144603]
[0.59850961 0.22430781 0.05031399 0.62008137]
[0.35144931 0.2487331  0.06186816 0.33548149]
[0.49086904 0.2772759  0.07688192 0.44533016]
[0.51441011 0.27633546 0.07636128 0.55366071]
[0.4382489  0.36167044 0.13080551 0.37549408]
[0.4782096  0.29089809 0.0846217  0.40344389]
[0.51469281 0.26257896 0.06894771 0.55739775]
[0.45102447 0.27250643 0.07425975 0.50477882]
[0.5331607  0.27401388 0.0750836  0.53275236]
[0.50021971 0.28618184 0.08190004 0.48219017]
[0.48755075 0.31119191 0.09684041 0.46107908]
[0.54136835 0.27520896 0.07573997 0.59820667]
[0.51918902 0.24295891 0.05902903 0.54262381]
[0.38054518 0.21130649 0.04465043 0.33913025]
[0.57626797 0.32000309 0.10240198 0.62515311]
[0.30045796 0.26270195 0.06901232 0.22806434]
[0.46208508 0.27509056 0.07567481 0.41601191]
[0.47871852 0.24794773 0.06147808 0.37701214]
[0.49136319 0.30759989 0.09461769 0.54729851]
[0.75356926 0.23950624 0.05736324 0.79381902]
[0.52533606 0.31981569 0.10228208 0.49151699]
[0.36151974 0.28805244 0.08297421 0.33714995]
[0.50349543 0.25923896 0.06720484 0.47342278]
[0.52063598 0.25158398 0.0632945  0.52693367]
[0.61267606 0.2460482  0.06053972 0.60872142]
[0.4379802  0.28374737 0.08051257 0.45683694]
[0.56360215 0.29987972 0.08992785 0.59620326]
[0.47539472 0.29424994 0.08658303 0.59988679]
[0.50887419 0.3281375  0.10767422 0.51117359]
[0.60926633 0.26524898 0.07035702 0.65732206]
[0.57940706 0.26186346 0.06857247 0.67284361]
[0.3775941  0.26179955 0.068539   0.32614654]
[0.53253929 0.22364299 0.05001619 0.56361118]
[0.41972844 0.23054154 0.0531494  0.44138286]
[0.31119477 0.24381321 0.05944488 0.25321648]
[0.52635188 0.29776767 0.08866559 0.63240594]
[0.49113675 0.30554778 0.09335944 0.34102224]
[0.6059641  0.25679693 0.06594467 0.67240237]
[0.49894279 0.29949457 0.089697   0.53834933]
[0.40790848 0.31913689 0.10184835 0.35168185]
[0.37150252 0.2339419  0.05472881 0.38566321]
[0.65576038 0.29101248 0.08468826 0.76736717]
[0.2116398  0.14840184 0.02202311 0.17326208]
[0.53362738 0.17599964 0.03097587 0.60085581]
[0.4016225  0.3955006  0.15642072 0.23165264]
[0.59045531 0.24690974 0.06096442 0.55667793]
[0.61198241 0.34985216 0.12239654 0.74149793]
[0.67280981 0.19914947 0.03966051 0.68123447]
[0.66277066 0.34108176 0.11633676 0.7770859 ]
[0.38001372 0.25631536 0.06569756 0.29343118]
[0.32769487 0.13744293 0.01889056 0.33323058]
[0.38878393 0.27464378 0.0754292  0.3539731 ]
[0.5631933  0.27772372 0.07713047 0.61019629]
[0.46741071 0.27342833 0.07476305 0.46889216]
[0.56185602 0.26819584 0.07192901 0.58396357]
[0.46943445 0.20855511 0.04349523 0.44707372]
[0.72390971 0.20678977 0.04276201 0.72933058]
[0.5778857  0.28103863 0.07898271 0.66842549]
[0.4980112  0.26090566 0.06807176 0.46378498]
[0.39585206 0.2650965  0.07027615 0.4154572 ]
[0.33468827 0.22010916 0.04844804 0.34905507]
[0.28856198 0.19589535 0.03837499 0.22505328]
[0.51735817 0.26762337 0.07162227 0.56156328]
[0.72004312 0.26576418 0.0706306  0.83351411]
[0.397767   0.26648039 0.0710118  0.37409313]
[0.43578614 0.28696686 0.08234998 0.3682535 ]
[0.53107052 0.22049101 0.04861629 0.61182814]
[0.47913854 0.27724296 0.07686366 0.46018815]
[0.52057615 0.27788258 0.07721873 0.48608107]
[0.6507194  0.255318   0.06518728 0.67606079]
[0.36119696 0.21088803 0.04447376 0.32249187]
[0.70020062 0.24031368 0.05775066 0.74277065]
[0.5133835  0.30532087 0.09322083 0.49366731]
[0.42931628 0.15115023 0.02284639 0.44855137]
[0.55467855 0.33570491 0.11269779 0.60931058]
[0.40014603 0.17458917 0.03048138 0.45271604]
[0.46549059 0.38217814 0.14606013 0.40298991]
[0.50169858 0.31613938 0.09994411 0.5552386 ]
[0.43828575 0.28528952 0.08139011 0.36990831]
[0.57227372 0.22935172 0.05260221 0.68045159]
[0.41888247 0.26245797 0.06888419 0.31909239]
[0.50726414 0.33595933 0.11286867 0.5790194 ]
[0.4672666  0.29813219 0.08888281 0.48875461]
[0.42052306 0.27679284 0.07661428 0.41215966]
[0.62965371 0.20950893 0.04389399 0.71423631]
[0.52249275 0.31778336 0.10098626 0.54348746]
[0.63164084 0.29273839 0.08569576 0.80750162]
[0.47670493 0.27571612 0.07601938 0.43495158]
[0.54170772 0.25109164 0.06304701 0.56368421]
[0.53201407 0.34916307 0.12191485 0.603122  ]
[0.57367274 0.15079293 0.02273851 0.61441245]
[0.57897551 0.21696443 0.04707356 0.62304552]
[0.44038741 0.3010816  0.09065013 0.39486336]
[0.40558236 0.30613641 0.0937195  0.26975633]
[0.39891251 0.20865278 0.04353598 0.29717358]
[0.4743995  0.31800663 0.10112821 0.52544413]
[0.55577543 0.31589701 0.09979092 0.462078  ]
[0.52513311 0.30746026 0.09453181 0.47560597]
[0.59550073 0.26133952 0.06829835 0.61112853]
[0.46748392 0.28852208 0.08324499 0.32664363]
[0.5733748  0.25791486 0.06652008 0.60747139]
[0.59953033 0.26700388 0.07129107 0.66796871]
[0.43595131 0.26415613 0.06977846 0.45673533]
[0.46927816 0.27408851 0.07512451 0.44840296]
[0.4741609  0.33541585 0.11250379 0.3754001 ]
[0.43743596 0.13827227 0.01911922 0.42322845]
[0.44541934 0.1987463  0.03950009 0.44819144]
[0.47776445 0.29070943 0.08451197 0.4508645 ]
[0.47284015 0.23408599 0.05479625 0.54268992]
[0.6200028  0.26840311 0.07204023 0.65448666]
[0.37426667 0.24925149 0.0621263  0.32976149]
[0.59627894 0.21927561 0.0480818  0.565306  ]
[0.56805078 0.26891814 0.07231697 0.53954697]
[0.63718904 0.28130001 0.07912969 0.6633326 ]
[0.32998406 0.26793898 0.0717913  0.23609945]
[0.43465074 0.25882029 0.06698794 0.43697948]
[0.40283608 0.31533357 0.09943526 0.36435813]
[0.6050219  0.31725503 0.10065075 0.68948197]
[0.47721456 0.24400475 0.05953832 0.49542937]
[0.50500799 0.28304704 0.08011563 0.40814496]
[0.51390597 0.27687581 0.07666022 0.48375116]
[0.54686265 0.25545331 0.06525639 0.62555931]
[0.30148199 0.18672873 0.03486762 0.297311  ]
[0.48671285 0.22633141 0.05122591 0.47588312]
[0.58812894 0.29210989 0.08532819 0.73118145]
[0.52535831 0.21854027 0.04775985 0.5698768 ]
[0.47835084 0.29058623 0.08444036 0.62215002]
[0.38457031 0.28140322 0.07918777 0.36834742]
[0.44292996 0.32108308 0.10309434 0.36891125]
[0.44510781 0.23217114 0.05390344 0.38192563]
[0.33227264 0.25320573 0.06411314 0.29304699]
[0.54525839 0.315875   0.09977702 0.70127531]
[0.52144163 0.19686767 0.03875688 0.54884056]
[0.51092334 0.29702862 0.088226   0.43530716]
[0.49444406 0.26437024 0.06989162 0.55302671]
[0.50602715 0.25207191 0.06354025 0.55049348]
[0.49126478 0.3369796  0.11355525 0.50452596]
[0.55299473 0.32536319 0.1058612  0.61356511]
[0.67906517 0.26294574 0.06914046 0.70298106]
[0.48636492 0.23451242 0.05499608 0.4646062 ]
[0.52291182 0.29192983 0.08522303 0.46795851]
[0.48589559 0.26698909 0.07128317 0.3649909 ]
[0.31081177 0.21067122 0.04438236 0.27811166]
[0.37915932 0.24190487 0.05851797 0.34774028]
[0.42523829 0.25295448 0.06398597 0.33937838]
[0.38834055 0.26297554 0.06915613 0.3305209 ]
[0.38597751 0.26744529 0.07152698 0.29681656]
[0.6333631  0.24302714 0.05906219 0.57240391]
[0.48070453 0.27984602 0.0783138  0.43861043]
[0.47599144 0.33247105 0.110537   0.34880407]
[0.53737647 0.30919487 0.09560147 0.63307975]
[0.61449996 0.36113356 0.13041745 0.73623723]
[0.46944214 0.34640229 0.11999454 0.3103711 ]
[0.5667327  0.28658436 0.0821306  0.59056487]
[0.49053945 0.25432616 0.0646818  0.55584154]
[0.39588529 0.33085391 0.10946431 0.25241637]
[0.55674994 0.31578112 0.09971771 0.60915367]
[0.53485586 0.272965   0.07450989 0.55565299]
[0.46869105 0.29550127 0.087321   0.47792755]
[0.63831303 0.26985131 0.07281973 0.65205741]
[0.56036054 0.1691615  0.02861561 0.53876523]
[0.49006833 0.22627914 0.05120225 0.40714599]
[0.37802621 0.35280595 0.12447204 0.21603103]
[0.41508804 0.25853063 0.06683809 0.45951166]
[0.5987687  0.29922016 0.0895327  0.7311484 ]
[0.62783485 0.18404306 0.03387185 0.65513717]
[0.34526726 0.29225049 0.08541035 0.32205166]
[0.44823155 0.28464805 0.08102451 0.44591475]
[0.36254961 0.30354263 0.09213813 0.2428477 ]
[0.38440813 0.2833212  0.0802709  0.31445777]
[0.48866132 0.33030539 0.10910165 0.34578834]
[0.50811651 0.24807372 0.06154057 0.48790652]
[0.48920689 0.28490733 0.08117218 0.44161579]
[0.40076995 0.24829478 0.0616503  0.31592661]
[0.5485918  0.26036013 0.0677874  0.61688242]
[0.46210058 0.33187495 0.11014098 0.53285305]
[0.55278767 0.21653645 0.04688803 0.64132121]
[0.42225285 0.26266854 0.06899476 0.46600736]
[0.39509305 0.27035205 0.07309023 0.3739588 ]
[0.33272775 0.21611632 0.04670626 0.38964208]
[0.51250375 0.29456801 0.08677031 0.44746066]
[0.5420116  0.28521002 0.08134475 0.62761651]
[0.41351492 0.32570005 0.10608052 0.36451434]
[0.41681453 0.30220689 0.091329   0.29519167]
[0.31868543 0.22096549 0.04882575 0.34724443]
[0.47564733 0.2918668  0.08518623 0.44363498]
[0.37659239 0.30255546 0.0915398  0.26351106]
[0.6455054  0.2932193  0.08597756 0.73948618]
[0.57164823 0.29072712 0.08452226 0.56232497]
[0.25356768 0.2191232  0.04801498 0.20541211]
[0.49921004 0.26547125 0.07047499 0.40937   ]
[0.43481336 0.26713063 0.07135877 0.47703562]
[0.57502074 0.25806107 0.06659552 0.58605991]
[0.60254697 0.28961347 0.08387596 0.58233784]
[0.40787639 0.32679778 0.10679679 0.23688483]
[0.54336547 0.25390365 0.06446706 0.47819281]
[0.43823225 0.2733986  0.0747468  0.47934397]
[0.52046363 0.31999525 0.10239696 0.55131533]
[0.61992878 0.22643683 0.05127364 0.63328444]
[0.34256275 0.23150715 0.05359556 0.26598173]
[0.59491163 0.29668539 0.08802222 0.68316956]
[0.5589177  0.23514284 0.05529215 0.53626037]
[0.59730691 0.21325673 0.04547843 0.59024824]
[0.48989622 0.32865681 0.1080153  0.58719462]
[0.5470511  0.21789175 0.04747681 0.57072701]
[0.50843901 0.2406122  0.05789423 0.44442371]
[0.44601918 0.2216257  0.04911795 0.42206035]
[0.63946521 0.38608337 0.14906037 0.80662313]
[0.4959019  0.24391395 0.05949401 0.46708276]
[0.6318979  0.32296647 0.10430734 0.73250735]
[0.41062445 0.29380648 0.08632225 0.41874652]
[0.39653103 0.22437441 0.05034387 0.47341177]
[0.46968216 0.23921846 0.05722547 0.4242721 ]
[0.51121501 0.16197091 0.02623458 0.53148218]
[0.57108253 0.2543339  0.06468573 0.67852841]
[0.66359593 0.27506247 0.07565936 0.74825684]
[0.44808036 0.34106802 0.1163274  0.37740903]
[0.50867175 0.27226647 0.07412903 0.53969471]
[0.49501072 0.36444907 0.13282312 0.38115741]
[0.57107894 0.304889   0.0929573  0.61445117]
[0.37656623 0.25787445 0.06649923 0.33833081]
[0.61153154 0.25144185 0.06322301 0.68216894]
[0.64757931 0.25015294 0.06257649 0.74301408]
[0.44392508 0.26592468 0.07071594 0.4660719 ]
[0.56848299 0.31750197 0.1008075  0.56918176]
[0.4882513  0.31814902 0.1012188  0.41783818]
[0.55143439 0.29491759 0.08697638 0.57021649]
[0.54822403 0.28781931 0.08283996 0.65278987]
[0.58189562 0.25686507 0.06597967 0.60188207]
[0.33121964 0.2288889  0.05239013 0.37318365]
[0.48921043 0.23129201 0.05349599 0.44567992]
[0.49047683 0.3064644  0.09392043 0.46857201]
[0.36173342 0.23377548 0.05465097 0.29365521]
[0.51026269 0.23536962 0.05539886 0.41192632]
[0.51378765 0.30678924 0.09411964 0.44665112]
[0.52604423 0.33516722 0.11233707 0.55941913]
[0.60546359 0.25614728 0.06561143 0.54009374]
[0.60598585 0.23542664 0.0554257  0.67303159]
[0.59944468 0.26258044 0.06894849 0.66874663]
[0.39675253 0.29866864 0.08920295 0.32089033]
[0.47665029 0.25206874 0.06353865 0.43530397]
[0.4797985  0.25593456 0.0655025  0.48577483]
[0.39208142 0.28944313 0.08377732 0.31257176]
[0.48687045 0.26862636 0.07216012 0.43629373]
[0.39919552 0.27809954 0.07733935 0.36606782]
[0.64366477 0.22226079 0.04939986 0.67555036]
[0.56497888 0.24515778 0.06010234 0.53171351]
[0.41100226 0.30331488 0.09199992 0.25666271]
[0.45469011 0.20316806 0.04127726 0.4432468 ]
[0.40355573 0.32459293 0.10536057 0.37495306]
[0.64714158 0.32403504 0.10499871 0.72528453]
[0.55338007 0.26125918 0.06825636 0.61764588]
[0.57365278 0.15434859 0.02382349 0.55853124]
[0.43910357 0.31044209 0.09637429 0.45824786]
[0.57675214 0.2484942  0.06174937 0.67119467]
[0.20034971 0.19048286 0.03628372 0.11592827]
[0.587193   0.31934072 0.1019785  0.64974974]
[0.61600011 0.28129552 0.07912717 0.63795081]
[0.34565975 0.31363866 0.09836921 0.21236863]
[0.43170895 0.17880612 0.03197163 0.43425923]
[0.49993249 0.25736632 0.06623742 0.45089988]
[0.4515505  0.26105898 0.06815179 0.52608305]
[0.72900236 0.18751926 0.03516347 0.76968466]
[0.52124182 0.28598235 0.0817859  0.61958845]
[0.50522459 0.23966068 0.05743724 0.4906873 ]
[0.56494719 0.24148604 0.05831551 0.46298346]
[0.57305876 0.24517793 0.06011222 0.56260331]
[0.41142587 0.29925911 0.08955602 0.28749462]
[0.59256258 0.29880823 0.08928636 0.69547568]
[0.47409349 0.28427566 0.08081265 0.5350351 ]
[0.45335657 0.28637463 0.08201043 0.3950351 ]
[0.44567001 0.27502264 0.07563745 0.353589  ]
[0.40651536 0.25778728 0.06645428 0.36777844]
[0.51761808 0.26793703 0.07179025 0.50421346]
[0.57909814 0.32512422 0.10570576 0.60956604]
[0.39615537 0.24276252 0.05893364 0.35649777]
[0.54549055 0.32577012 0.10612617 0.62726935]
[0.49607968 0.22898402 0.05243368 0.38465696]
[0.58947236 0.36449565 0.13285708 0.71317313]
[0.58951468 0.29530998 0.08720799 0.58499014]
[0.5134634  0.26342609 0.06939331 0.43093645]
[0.55942937 0.31767015 0.10091433 0.6822444 ]
[0.49929416 0.28593982 0.08176158 0.51134695]
[0.57489502 0.29774088 0.08864963 0.65930343]
[0.56648857 0.29373021 0.08627744 0.63987585]
[0.3439335  0.29879544 0.08927872 0.22165237]
[0.56925599 0.29557738 0.08736599 0.5367438 ]
[0.4541442  0.28787819 0.08287385 0.44773118]
[0.5870327  0.31993882 0.10236085 0.68551668]
[0.51428367 0.27531578 0.07579878 0.52090326]
[0.35440233 0.31249321 0.09765201 0.28909863]
[0.59174272 0.28093956 0.07892704 0.61096105]
[0.48011517 0.30083043 0.09049895 0.33362567]
[0.59180064 0.23246644 0.05404065 0.59082897]
[0.51247676 0.3093328  0.09568678 0.62293286]
[0.36938497 0.29114706 0.08476661 0.32358439]
[0.67839507 0.20891439 0.04364522 0.69771534]
[0.55918315 0.30844039 0.09513548 0.5337136 ]
[0.37501288 0.31102327 0.09673547 0.328316  ]
[0.47235087 0.26939306 0.07257262 0.49662649]
[0.33781348 0.25579807 0.06543265 0.23794203]
[0.4357278  0.25545395 0.06525672 0.47027084]
[0.60376248 0.26200758 0.06864797 0.61836865]
[0.28594646 0.20054213 0.04021715 0.24766369]
[0.54646113 0.26017194 0.06768944 0.59202554]
[0.63173854 0.21389767 0.04575221 0.59705381]
[0.4630977  0.23062575 0.05318824 0.490707  ]
[0.64779875 0.26378025 0.06958002 0.73931629]
[0.51975687 0.24446614 0.05976369 0.46203471]
[0.54472728 0.28873785 0.08336955 0.55120461]
[0.44683276 0.28354908 0.08040008 0.46270248]
[0.52384971 0.26271904 0.06902129 0.4341953 ]
[0.38948995 0.27567897 0.07599889 0.36353452]
[0.54387926 0.21796729 0.04750974 0.61062921]
[0.48209814 0.18009328 0.03243359 0.52318557]
[0.42387408 0.17747224 0.0314964  0.39706734]
[0.4876232  0.27817074 0.07737896 0.59585521]
[0.44681778 0.25247599 0.06374412 0.46201421]
[0.65595117 0.30462341 0.09279542 0.79914847]
[0.38079574 0.2831582  0.08017857 0.33864843]
[0.56903745 0.28399019 0.08065043 0.54473023]
[0.56277425 0.18692559 0.03494118 0.55227445]
[0.41924075 0.28710602 0.08242986 0.31872308]
[0.60860128 0.19392632 0.03760742 0.60747694]
[0.47398601 0.22476267 0.05051826 0.52999493]
[0.52741633 0.28509615 0.08127982 0.6500993 ]
[0.54721524 0.31339028 0.09821347 0.47988524]
[0.53262828 0.30738823 0.09448753 0.56107516]
[0.39837362 0.26681956 0.07119268 0.4329007 ]
[0.60871697 0.31038715 0.09634018 0.77563205]
[0.54886155 0.2735211  0.07481379 0.47596405]
[0.34340511 0.26168063 0.06847675 0.31101748]
[0.42168699 0.29231988 0.08545091 0.4982324 ]
[0.53433445 0.2301317  0.0529606  0.54134463]
[0.46686438 0.30131103 0.09078834 0.47807239]
[0.53165015 0.32462348 0.1053804  0.58024066]
[0.45641362 0.30465024 0.09281177 0.4233343 ]
[0.40437616 0.23613358 0.05575907 0.38083691]
[0.45463795 0.3002457  0.09014748 0.40230999]
[0.57140968 0.25266321 0.0638387  0.54177096]
[0.57183443 0.27629703 0.07634005 0.61452436]
[0.57330441 0.30307627 0.09185523 0.64038105]
[0.42865944 0.3088957  0.09541655 0.43519228]
[0.64746772 0.27895496 0.07781587 0.77617706]
[0.50002086 0.29587012 0.08753913 0.53897233]
[0.38377954 0.25897726 0.06706922 0.32215638]
[0.43732378 0.32359217 0.1047119  0.36684125]
[0.62106995 0.18450627 0.03404256 0.60569848]
[0.56140939 0.29989242 0.08993546 0.49791664]
[0.482864   0.28222405 0.07965041 0.42588639]
[0.54633416 0.26609411 0.07080608 0.60171813]
[0.57895355 0.2990784  0.08944789 0.75793302]
[0.62124962 0.26900085 0.07236146 0.64444093]
[0.55515178 0.2412464  0.05819983 0.56713387]
[0.51657744 0.25888684 0.0670224  0.44140985]
[0.60830078 0.24257571 0.05884298 0.61113496]
[0.37040702 0.32055748 0.1027571  0.26425169]
[0.64446641 0.31243037 0.09761274 0.79137298]
[0.42605938 0.28913948 0.08360164 0.4337018 ]
[0.70972621 0.23467433 0.05507204 0.74759366]
[0.6320941  0.24009892 0.05764749 0.70193815]
[0.49094988 0.24400855 0.05954017 0.44815924]
[0.46879135 0.22622349 0.05117707 0.53674141]
[0.51347373 0.31437895 0.09883412 0.59187254]
[0.49752718 0.35077378 0.12304224 0.48244476]
[0.51434294 0.2842898  0.08082069 0.5242378 ]
[0.6355847  0.26265737 0.0689889  0.65866559]
[0.47986196 0.23666331 0.05600952 0.52216103]
[0.50722659 0.34102146 0.11629563 0.54158019]
[0.41821264 0.27280772 0.07442405 0.32835826]
[0.62377517 0.2356777  0.05554398 0.71796484]
[0.27511279 0.18452862 0.03405081 0.3157421 ]
[0.49557391 0.22735461 0.05169012 0.51685079]
[0.40221827 0.34004254 0.11562893 0.3088425 ]
[0.39969373 0.28667031 0.08217987 0.32505221]
[0.3714628  0.31126293 0.09688461 0.33657906]
[0.58022509 0.25121569 0.06310932 0.66544294]
[0.41289455 0.28321203 0.08020905 0.40887019]
[0.40884686 0.3488983  0.12173003 0.48010092]
[0.50705223 0.26219958 0.06874862 0.48504806]
[0.64733159 0.26126736 0.06826063 0.67072781]
[0.50526617 0.27685772 0.0766502  0.47926393]
[0.36016034 0.28269016 0.07991373 0.22338185]
[0.55616821 0.26176466 0.06852074 0.53590299]
[0.36782664 0.33257689 0.11060738 0.31052184]
[0.63312339 0.19766335 0.0390708  0.64091047]
[0.52316046 0.27818658 0.07738778 0.61496425]
[0.59067777 0.25864189 0.06689563 0.69248846]
[0.56631591 0.17168901 0.02947712 0.59393971]
[0.59490454 0.32253151 0.10402657 0.59058161]
[0.54064123 0.28063233 0.07875451 0.52905421]
[0.67240063 0.30178685 0.0910753  0.83637686]
[0.55677965 0.29840672 0.08904657 0.56945096]
[0.62293239 0.30060443 0.09036303 0.73304722]
[0.33006097 0.22686706 0.05146866 0.25507081]
[0.4638833  0.2627834  0.06905511 0.45725762]
[0.39810149 0.26421406 0.06980907 0.32531501]
[0.48495312 0.25007945 0.06253973 0.50322497]
[0.42239426 0.230768   0.05325387 0.37515677]
[0.49492427 0.29370799 0.08626439 0.56587431]
[0.60368116 0.19761485 0.03905163 0.65502543]
[0.48330533 0.33180456 0.11009427 0.51290514]
[0.52138621 0.27932584 0.07802293 0.59750398]
[0.46162467 0.32593716 0.10623504 0.52846411]
[0.59764787 0.21128989 0.04464342 0.51745834]
[0.45762676 0.29852116 0.08911488 0.34806638]
[0.50372201 0.3123143  0.09754022 0.53476727]
[0.6564778  0.24542151 0.06023172 0.6605781 ]
[0.37847491 0.29107832 0.08472659 0.33515794]
[0.66884896 0.28584042 0.08170475 0.74073644]
[0.40142931 0.30079084 0.09047513 0.38065572]
[0.47844233 0.19163239 0.03672297 0.44109403]
[0.49178187 0.21135358 0.04467034 0.51615634]
[0.44666016 0.32826974 0.10776102 0.41485567]
[0.57848554 0.26303967 0.06918987 0.53431363]
[0.58407335 0.22590255 0.05103196 0.62187142]
[0.49573014 0.29438543 0.08666278 0.42646882]
[0.45130325 0.26451841 0.06996999 0.42983625]
[0.36087364 0.21007775 0.04413266 0.32300148]
[0.31090237 0.19984745 0.039939   0.33364138]
[0.52014156 0.31364044 0.09837032 0.58570436]
[0.52260394 0.26686907 0.0712191  0.44300785]
[0.48495308 0.24651602 0.06077015 0.42647407]
[0.5655259  0.26150042 0.06838247 0.5368774 ]
[0.38722668 0.25621465 0.06564595 0.32144067]
[0.56387232 0.30863032 0.09525267 0.60535405]
[0.62340512 0.21833738 0.04767121 0.66112763]
[0.46304839 0.26624327 0.07088548 0.36573816]
[0.61387151 0.27204858 0.07401043 0.69970444]
[0.46674923 0.21867241 0.04781762 0.36381404]
[0.45208697 0.31065902 0.09650903 0.32811523]
[0.47585818 0.2779078  0.07723274 0.35518804]
[0.53439999 0.27677977 0.07660704 0.49149059]
[0.4069367  0.1859936  0.03459362 0.40454104]
[0.42670872 0.28754629 0.08268287 0.39640698]
[0.53998353 0.23069267 0.05321911 0.52433757]
[0.44615351 0.27067386 0.07326434 0.43463538]
[0.54322151 0.30218172 0.09131379 0.68884623]
[0.52362175 0.23228019 0.05395409 0.52532143]
[0.50383472 0.26293724 0.06913599 0.46707359]
[0.58708731 0.21627319 0.04677409 0.62575444]
[0.66117694 0.30324578 0.091958   0.77741697]
[0.46354631 0.2443733  0.05971831 0.39516673]
[0.49971268 0.24551258 0.06027643 0.50406426]
[0.49021077 0.28534204 0.08142008 0.51694788]
[0.60209406 0.26406098 0.0697282  0.58599122]
[0.30501738 0.28002679 0.078415   0.1312707 ]
[0.35801418 0.26586974 0.07068672 0.25595501]
[0.42272159 0.35638156 0.12700782 0.3504644 ]
[0.5105708  0.28095947 0.07893822 0.61492469]
[0.49347593 0.20844932 0.04345112 0.48311555]
[0.59810482 0.2180294  0.04753682 0.63859693]
[0.46368817 0.29813406 0.08888391 0.29744657]
[0.57538215 0.30319001 0.09192418 0.62803275]
[0.55706718 0.29900067 0.0894014  0.63617093]
[0.36026919 0.18603687 0.03460972 0.33804603]
[0.40080663 0.23504013 0.05524386 0.37797256]
[0.42084204 0.33844748 0.1145467  0.32964024]
[0.59242435 0.23812775 0.05670483 0.66595701]
[0.55221485 0.24411867 0.05959393 0.65828913]
[0.38421696 0.26322882 0.06928941 0.43764623]
[0.49713315 0.26365911 0.06951613 0.51706394]
[0.55511851 0.17399925 0.03027574 0.51340479]
[0.40961061 0.30209348 0.09126047 0.31231238]
[0.38073278 0.24754012 0.06127611 0.35551703]
[0.46089375 0.27277236 0.07440476 0.41797563]
[0.44293118 0.29908264 0.08945042 0.36072076]
[0.61103935 0.30562137 0.09340442 0.67230474]
[0.49138188 0.33223866 0.11038253 0.58590807]
[0.46652176 0.28801314 0.08295157 0.51389972]
[0.47378148 0.319666   0.10218635 0.47533213]
[0.35752017 0.28470513 0.08105701 0.38465146]
[0.39312131 0.34221017 0.1171078  0.27735884]
[0.51778904 0.3884419  0.15088711 0.65484327]
[0.57035157 0.27295128 0.0745024  0.56506529]
[0.53921057 0.2665965  0.0710737  0.58530593]
[0.53708519 0.36037442 0.12986972 0.48329772]
[0.53182927 0.26804958 0.07185058 0.50067737]
[0.42955926 0.20416867 0.04168485 0.41233924]
[0.44682357 0.36413781 0.13259634 0.3170287 ]
[0.5407492  0.28473027 0.08107133 0.5358054 ]
[0.49410007 0.32588557 0.10620141 0.48200518]
[0.36241183 0.25827185 0.06670435 0.30627961]
[0.56139051 0.28802923 0.08296084 0.63341019]
[0.5789021  0.2846999  0.08105404 0.64365656]
[0.43780042 0.26012072 0.06766279 0.4078889 ]
[0.5031065  0.27667647 0.07654987 0.48050609]
[0.41986911 0.25612639 0.06560073 0.35423598]
[0.56541517 0.25709979 0.0661003  0.68313478]
[0.47609949 0.27151595 0.07372091 0.44396809]
[0.55874603 0.27656245 0.07648679 0.46122436]
[0.59051505 0.2414674  0.05830651 0.66150173]
[0.41424864 0.2102271  0.04419543 0.3720339 ]
[0.5083198  0.29245072 0.08552742 0.53787455]
[0.49111947 0.32151604 0.10337256 0.50227307]
[0.63437989 0.30787858 0.09478922 0.72412209]
[0.60553381 0.27549698 0.07589859 0.67378484]
[0.50712316 0.29419295 0.08654949 0.37756041]
[0.47236445 0.34707921 0.12046398 0.43690756]
[0.42788788 0.25580168 0.0654345  0.30463561]
[0.66554383 0.32522649 0.10577227 0.77678901]
[0.47180396 0.28956833 0.08384982 0.43641076]
[0.54567844 0.31543976 0.09950224 0.59589001]
[0.58322456 0.32729602 0.10712269 0.64537246]
[0.60231657 0.27173619 0.07384056 0.65912872]
[0.49701299 0.27054688 0.07319562 0.40697442]
[0.64033109 0.32189919 0.10361909 0.78079378]
[0.51378928 0.3028241  0.09170244 0.50698304]
[0.52860558 0.29373144 0.08627816 0.54819543]
[0.53108827 0.29183129 0.0851655  0.53756233]
[0.51531578 0.30862862 0.09525163 0.55029728]
[0.52903477 0.24468838 0.0598724  0.52977423]
[0.37398582 0.31616661 0.09996133 0.35471318]
[0.52724928 0.33660454 0.11330262 0.55691209]
[0.63551902 0.30578219 0.09350275 0.7531845 ]
[0.59997977 0.25049731 0.0627489  0.5861133 ]
[0.62421218 0.25645447 0.06576889 0.65932864]
[0.49367473 0.26790826 0.07177484 0.53210024]
[0.53393229 0.35660217 0.12716511 0.5569911 ]
[0.59076395 0.33482529 0.11210798 0.6741004 ]
[0.35372645 0.23497123 0.05521148 0.34417493]
[0.44857055 0.33201447 0.11023361 0.36064055]
[0.45383117 0.27338477 0.07473923 0.35907141]
[0.49746925 0.2585796  0.06686341 0.44382001]
[0.41210679 0.27950137 0.07812102 0.4043327 ]
[0.47861982 0.32102681 0.10305821 0.4740367 ]
[0.45672289 0.13901166 0.01932424 0.49228871]
[0.41606031 0.25926308 0.06721734 0.44814409]
[0.55447844 0.36939933 0.13645587 0.7307638 ]
[0.45200705 0.30830566 0.09505238 0.49889216]
[0.56924511 0.24937147 0.06218613 0.61245943]
[0.47953031 0.30447079 0.09270246 0.43845902]
[0.47763614 0.21552338 0.04645033 0.57191305]
[0.50882112 0.33270264 0.11069105 0.60465031]
[0.54231544 0.21968746 0.04826258 0.58227304]
[0.38854043 0.31139788 0.09696864 0.26499266]
[0.55878359 0.27765776 0.07709383 0.6495155 ]
[0.44770672 0.24260241 0.05885593 0.39940282]
[0.53097784 0.18718581 0.03503853 0.50296263]
[0.4840226  0.3445426  0.1187096  0.49971808]
[0.45989908 0.29483378 0.08692696 0.53172709]
[0.3913242  0.21863596 0.04780168 0.41731265]
[0.43338912 0.28802069 0.08295592 0.45435496]
[0.64267923 0.26424314 0.06982444 0.73504318]
[0.37605993 0.33760335 0.11397602 0.30357859]
[0.53389165 0.30879236 0.09535272 0.54717124]
[0.59312747 0.30634765 0.09384888 0.68546859]
[0.5550106  0.2628473  0.0690887  0.69969635]
[0.42905646 0.25685248 0.0659732  0.37494389]
[0.28867569 0.27068562 0.0732707  0.20627774]
[0.33606914 0.23468243 0.05507585 0.24824337]
[0.56246593 0.21333898 0.04551352 0.55122908]
[0.50441778 0.2456027  0.06032069 0.48828976]
[0.48763142 0.259617   0.06740099 0.51474598]
[0.32191303 0.22277647 0.04962936 0.24765728]
[0.48098319 0.3378253  0.11412593 0.39771323]
[0.67456925 0.22295912 0.04971077 0.63816054]
[0.57645964 0.27442422 0.07530865 0.69372095]
[0.51737637 0.33288222 0.11081057 0.54496902]
[0.57996545 0.16058014 0.02578598 0.58146051]
[0.45817825 0.3385324  0.11460418 0.33959468]
[0.50048442 0.33719147 0.11369809 0.45246205]
[0.27880405 0.31605573 0.09989123 0.1223535 ]
[0.62648624 0.24957868 0.06228952 0.62854889]
[0.46455889 0.33323209 0.11104362 0.54608545]
[0.61725008 0.29608667 0.08766732 0.75229669]
[0.43340841 0.3208153  0.10292246 0.45670861]
[0.42346099 0.29077706 0.0845513  0.38758875]
[0.48136967 0.30152488 0.09091725 0.52510089]
[0.36314891 0.24264678 0.05887746 0.31227102]
[0.47812567 0.25254804 0.06378051 0.44870552]
[0.36962556 0.24865963 0.06183161 0.35139284]
[0.46936746 0.24590056 0.06046709 0.45990225]
[0.60810371 0.31476068 0.09907429 0.72211941]
[0.48895776 0.21396437 0.04578075 0.51377608]
[0.43511634 0.31869065 0.10156373 0.34575137]
[0.6227252  0.24231201 0.05871511 0.63624064]
[0.56887045 0.32714122 0.10702138 0.55992086]
[0.46509265 0.2698969  0.07284434 0.47524605]
[0.38741013 0.28373639 0.08050634 0.26724093]
[0.64366731 0.26201305 0.06865084 0.71743683]
[0.51294218 0.2931477  0.08593557 0.43385221]
[0.65307225 0.30421687 0.0925479  0.73774424]
[0.35611716 0.20785598 0.04320411 0.40143068]
[0.60173749 0.24469242 0.05987438 0.66034567]
[0.3295111  0.2650578  0.07025564 0.30709971]
[0.49059881 0.26198875 0.0686381  0.45689697]
[0.50512749 0.29224235 0.08540559 0.44064222]
[0.45195441 0.27347708 0.07478971 0.47014168]
[0.63061399 0.27939338 0.07806066 0.64044912]
[0.48832193 0.35603714 0.12676245 0.46940921]
[0.53047436 0.29039295 0.08432807 0.52384881]
[0.59577598 0.25378283 0.06440572 0.66586841]
[0.43873675 0.28633594 0.08198827 0.41681834]
[0.51514178 0.30556806 0.09337184 0.50184595]
[0.47453236 0.23920233 0.05721775 0.48386104]
[0.55453646 0.29657088 0.08795429 0.63124688]
[0.4359919  0.23731205 0.05631701 0.45967033]
[0.37953979 0.25510149 0.06507677 0.30671403]
[0.44596757 0.30404685 0.09244449 0.29601339]
[0.42151318 0.25191256 0.06345994 0.39813214]
[0.49303346 0.31789119 0.10105481 0.51734042]
[0.46710632 0.26527423 0.07037042 0.45194705]
[0.42330233 0.23511046 0.05527693 0.44618458]
[0.39794381 0.19576362 0.0383234  0.38000113]
[0.50579268 0.24874757 0.06187535 0.51014612]
[0.49003967 0.25888831 0.06702316 0.42141217]
[0.36356561 0.30960176 0.09585325 0.30970927]
[0.53198864 0.29493388 0.08698599 0.53784129]
[0.51240283 0.24595526 0.06049399 0.57421123]
[0.54226195 0.29976569 0.08985947 0.56665142]
[0.51305811 0.17026721 0.02899092 0.4760087 ]
[0.45606019 0.28193777 0.07948891 0.4299687 ]
[0.57059148 0.35479692 0.12588085 0.68031222]
[0.43484583 0.30116084 0.09069785 0.38222441]
[0.53837559 0.23803325 0.05665983 0.5135131 ]
[0.34956001 0.26145098 0.06835661 0.28974353]
[0.61750664 0.30948357 0.09578008 0.73171028]
[0.49711209 0.27124676 0.07357481 0.52248651]
[0.50942832 0.29361908 0.08621217 0.41106867]
[0.58667033 0.2459214  0.06047734 0.63113155]
[0.45498847 0.2370876  0.05621053 0.40001573]
[0.63434227 0.29568916 0.08743208 0.72135904]
[0.39458875 0.28135336 0.07915971 0.36976993]
[0.55506557 0.20113558 0.04045552 0.56013952]
[0.58073828 0.22573401 0.05095584 0.62069766]
[0.62661857 0.210839   0.04445308 0.67800415]
[0.44130498 0.29025373 0.08424723 0.41942875]
[0.40913998 0.30022698 0.09013624 0.32396622]
[0.45722249 0.24555262 0.06029609 0.46876579]
[0.67834745 0.29408802 0.08648777 0.80683701]
[0.55996326 0.37139075 0.13793109 0.66350956]
[0.54640171 0.32857156 0.10795927 0.4847325 ]
[0.49697065 0.34306373 0.11769272 0.50484633]
[0.58300676 0.23059897 0.05317588 0.65694293]
[0.41558835 0.30160941 0.09096824 0.35550075]
[0.32369692 0.21588583 0.04660669 0.29322629]
[0.56408144 0.27130293 0.07360528 0.47410953]
[0.56755154 0.33272355 0.11070496 0.71620171]
